xof 0303txt 0032
template ColorRGBA {
 <35ff44e0-6c7c-11cf-8f52-0040333594a3>
 FLOAT red;
 FLOAT green;
 FLOAT blue;
 FLOAT alpha;
}

template ColorRGB {
 <d3e16e81-7835-11cf-8f52-0040333594a3>
 FLOAT red;
 FLOAT green;
 FLOAT blue;
}

template Material {
 <3d82ab4d-62da-11cf-ab39-0020af71e433>
 ColorRGBA faceColor;
 FLOAT power;
 ColorRGB specularColor;
 ColorRGB emissiveColor;
 [...]
}

template TextureFilename {
 <a42790e1-7810-11cf-8f52-0040333594a3>
 STRING filename;
}

template Frame {
 <3d82ab46-62da-11cf-ab39-0020af71e433>
 [...]
}

template Matrix4x4 {
 <f6f23f45-7686-11cf-8f52-0040333594a3>
 array FLOAT matrix[16];
}

template FrameTransformMatrix {
 <f6f23f41-7686-11cf-8f52-0040333594a3>
 Matrix4x4 frameMatrix;
}

template Vector {
 <3d82ab5e-62da-11cf-ab39-0020af71e433>
 FLOAT x;
 FLOAT y;
 FLOAT z;
}

template MeshFace {
 <3d82ab5f-62da-11cf-ab39-0020af71e433>
 DWORD nFaceVertexIndices;
 array DWORD faceVertexIndices[nFaceVertexIndices];
}

template Mesh {
 <3d82ab44-62da-11cf-ab39-0020af71e433>
 DWORD nVertices;
 array Vector vertices[nVertices];
 DWORD nFaces;
 array MeshFace faces[nFaces];
 [...]
}

template MeshMaterialList {
 <f6f23f42-7686-11cf-8f52-0040333594a3>
 DWORD nMaterials;
 DWORD nFaceIndexes;
 array DWORD faceIndexes[nFaceIndexes];
 [Material <3d82ab4d-62da-11cf-ab39-0020af71e433>]
}

template VertexElement {
 <f752461c-1e23-48f6-b9f8-8350850f336f>
 DWORD Type;
 DWORD Method;
 DWORD Usage;
 DWORD UsageIndex;
}

template DeclData {
 <bf22e553-292c-4781-9fea-62bd554bdd93>
 DWORD nElements;
 array VertexElement Elements[nElements];
 DWORD nDWords;
 array DWORD data[nDWords];
}


Material WorldGridMaterial {
 1.000000;1.000000;1.000000;1.000000;;
 10.000000;
 0.000000;0.000000;0.000000;;
 0.000000;0.000000;0.000000;;

 TextureFilename {
  "T_Default_Material_Grid_M.tga";
 }
}

Frame SM_ST_Basement01_NavMesh {
 

 FrameTransformMatrix {
  1.000000,0.000000,0.000000,0.000000,0.000000,1.000000,0.000000,0.000000,0.000000,0.000000,1.000000,0.000000,0.000000,0.000000,0.000000,1.000000;;
 }

 Mesh SM_ST_Basement01_NavMesh {
  46;
  454.56957;18.039200;-183.360781;,
  454.56957;18.039200;-230.738765;,
  192.669184;18.039200;-230.738765;,
  192.669184;18.039200;-183.360781;,
  474.65878;-135.865677;1.097580;,
  454.56957;-135.865677;1.097580;,
  454.56957;-601.18643;562.89414;,
  474.65878;-601.18643;562.89414;,
  454.56957;-601.18643;562.89414;,
  192.669184;-601.18643;575.92979;,
  454.56957;-601.18643;1013.70240;,
  192.669184;-601.18643;1013.70240;,
  474.65878;-601.18643;562.89414;,
  454.56957;-601.18643;562.89414;,
  474.65878;-601.18643;1013.70240;,
  454.56957;-601.18643;1013.70240;,
  150.035277;-601.18643;1013.70240;,
  192.669184;-601.18643;575.92979;,
  150.035277;-601.18643;575.92979;,
  192.669184;-601.18643;1013.70240;,
  -2.946259;-732.63181;1013.70240;,
  150.035277;-601.18643;575.92979;,
  -2.946259;-732.63181;575.92979;,
  150.035277;-601.18643;1013.70240;,
  -2.946259;-754.31590;1013.70240;,
  -2.946259;-732.63181;575.92979;,
  -2.946259;-754.31590;575.92979;,
  -2.946259;-732.63181;1013.70240;,
  -2.946259;-754.31590;1013.70240;,
  -2.946259;-754.31590;575.92979;,
  -844.76000;-754.31590;1013.70240;,
  -844.76000;-754.31590;575.92979;,
  -844.76000;-754.31590;-571.51002;,
  -2.946259;-754.31590;575.92979;,
  -2.946259;-754.31590;-571.51002;,
  -844.76000;-754.31590;575.92979;,
  135.083136;-754.31590;-571.51002;,
  -2.946259;-754.31590;-571.51002;,
  -2.946259;-754.31590;575.92979;,
  135.083136;-754.31590;575.92979;,
  454.56957;18.039200;-183.360781;,
  192.669184;18.039200;-183.360781;,
  454.56957;-135.865677;1.097580;,
  192.669184;-135.865677;1.097580;,
  454.56957;-601.18643;562.89414;,
  192.669184;-601.18643;575.92979;;
  24;
  3;0,1,2;,
  3;2,3,0;,
  3;4,5,6;,
  3;6,7,4;,
  3;8,9,10;,
  3;9,11,10;,
  3;12,13,14;,
  3;13,15,14;,
  3;16,17,18;,
  3;17,16,19;,
  3;20,21,22;,
  3;21,20,23;,
  3;24,25,26;,
  3;25,24,27;,
  3;28,29,30;,
  3;31,30,29;,
  3;32,33,34;,
  3;32,35,33;,
  3;36,37,38;,
  3;38,39,36;,
  3;40,41,42;,
  3;41,43,42;,
  3;42,43,44;,
  3;43,45,44;;

  MeshMaterialList {
   1;
   24;
   0,
   0,
   0,
   0,
   0,
   0,
   0,
   0,
   0,
   0,
   0,
   0,
   0,
   0,
   0,
   0,
   0,
   0,
   0,
   0,
   0,
   0,
   0,
   0;
   { WorldGridMaterial }
  }

  DeclData {
   4;
   2;0;3;0;,
   2;0;6;0;,
   2;0;7;0;,
   1;0;5;0;;
   506;
   0,
   1065353216,
   0,
   1065353216,
   0,
   0,
   0,
   0,
   3212836864,
   1059700736,
   1056964608,
   0,
   1065353216,
   0,
   1065353216,
   0,
   0,
   0,
   0,
   3212836864,
   1059700736,
   1061158912,
   0,
   1065353216,
   0,
   1065353216,
   0,
   0,
   0,
   0,
   3212836864,
   1051254784,
   1061158912,
   0,
   1065353216,
   0,
   1065353216,
   0,
   0,
   0,
   0,
   3212836864,
   1051254784,
   1056964608,
   0,
   1061496713,
   1059277876,
   0,
   1059277876,
   3208980361,
   3212836864,
   0,
   0,
   1065353216,
   939524096,
   0,
   1061496713,
   1059277876,
   0,
   1059277876,
   3208980361,
   3212836864,
   0,
   0,
   1065353216,
   1065353216,
   0,
   1061496713,
   1059277876,
   0,
   1059277876,
   3208980361,
   3212836864,
   0,
   0,
   939524096,
   1065353216,
   0,
   1061496713,
   1059277876,
   0,
   1059277876,
   3208980361,
   3212836864,
   0,
   0,
   939524096,
   939524096,
   0,
   1065353216,
   0,
   1065332473,
   0,
   3175849613,
   3175849613,
   0,
   3212816121,
   1065353216,
   1065353216,
   0,
   1065353216,
   0,
   1065343977,
   0,
   3171412486,
   3171412486,
   0,
   3212827625,
   939524096,
   1065353216,
   0,
   1065353216,
   0,
   1065350772,
   0,
   3163279427,
   3163279428,
   0,
   3212834420,
   1065353216,
   939524096,
   0,
   1065353216,
   0,
   1065353216,
   0,
   0,
   0,
   0,
   3212836864,
   939524096,
   939524096,
   0,
   1065353216,
   0,
   1065353216,
   0,
   0,
   0,
   0,
   3212836864,
   1065353216,
   1065353216,
   0,
   1065353216,
   0,
   1065353216,
   0,
   0,
   0,
   0,
   3212836864,
   939524096,
   1065353216,
   0,
   1065353216,
   0,
   1065353216,
   0,
   0,
   0,
   0,
   3212836864,
   1065353216,
   939524096,
   0,
   1065353216,
   0,
   1065353216,
   0,
   0,
   0,
   0,
   3212836864,
   939524096,
   939524096,
   3199331478,
   1064307609,
   0,
   0,
   0,
   1065353216,
   1064307609,
   1051847829,
   0,
   1065353216,
   939524096,
   0,
   1065353216,
   0,
   0,
   0,
   1065353216,
   1065353216,
   0,
   0,
   939524096,
   1065353216,
   3199331477,
   1064307609,
   0,
   0,
   0,
   1065353216,
   1064307609,
   1051847829,
   0,
   939524096,
   939524096,
   0,
   1065353216,
   0,
   0,
   0,
   1065353216,
   1065353216,
   0,
   0,
   1065353216,
   1065353216,
   3206993372,
   1061301119,
   0,
   0,
   0,
   1065353216,
   1061301119,
   1059509724,
   0,
   1065353216,
   939524096,
   3199331477,
   1064307609,
   0,
   0,
   0,
   1065353216,
   1064307609,
   1051847829,
   0,
   939524096,
   1065353216,
   3206993372,
   1061301119,
   0,
   0,
   0,
   1065353216,
   1061301119,
   1059509724,
   0,
   939524096,
   939524096,
   3199331478,
   1064307609,
   0,
   0,
   0,
   1065353216,
   1064307609,
   1051847830,
   0,
   1065353216,
   1065353216,
   3212836864,
   0,
   0,
   0,
   0,
   1065353216,
   0,
   1065353216,
   0,
   1065353216,
   939524096,
   3212836864,
   0,
   0,
   0,
   0,
   1065353216,
   0,
   1065353216,
   0,
   939524096,
   1065353216,
   3212836864,
   0,
   0,
   0,
   0,
   1065353216,
   0,
   1065353216,
   0,
   939524096,
   939524096,
   3212836864,
   0,
   0,
   0,
   0,
   1065353216,
   0,
   1065353216,
   0,
   1065353216,
   1065353216,
   0,
   1065353216,
   0,
   0,
   0,
   1065353216,
   1065353216,
   0,
   0,
   1065353216,
   1065353216,
   0,
   1065353216,
   0,
   0,
   0,
   1065353216,
   1065353216,
   0,
   0,
   939524096,
   1065353216,
   0,
   1065353216,
   0,
   0,
   0,
   1065353216,
   1065353216,
   0,
   0,
   1065353216,
   939524096,
   0,
   1065353216,
   0,
   0,
   0,
   1065353216,
   1065353216,
   0,
   0,
   939524096,
   939524096,
   0,
   1065353216,
   0,
   3212836864,
   0,
   0,
   0,
   0,
   1065353216,
   1065353216,
   939524096,
   0,
   1065353216,
   0,
   3212836864,
   0,
   0,
   0,
   0,
   1065353216,
   939524096,
   1065353216,
   0,
   1065353216,
   0,
   3212836864,
   0,
   0,
   0,
   0,
   1065353216,
   939524096,
   939524096,
   0,
   1065353216,
   0,
   3212836864,
   0,
   0,
   0,
   0,
   1065353216,
   1065353216,
   1065353216,
   0,
   1065353216,
   0,
   0,
   0,
   3212836864,
   3212836864,
   0,
   0,
   1065353216,
   939524096,
   0,
   1065353216,
   0,
   0,
   0,
   3212836864,
   3212836864,
   0,
   0,
   1065353216,
   1065353216,
   0,
   1065353216,
   0,
   0,
   0,
   3212836864,
   3212836864,
   0,
   0,
   939524096,
   1065353216,
   0,
   1065353216,
   0,
   0,
   0,
   3212836864,
   3212836864,
   0,
   0,
   939524096,
   939524096,
   0,
   1061458101,
   1059324323,
   1065353216,
   0,
   0,
   0,
   1059324323,
   3208941749,
   1059700736,
   1056964608,
   0,
   1061458101,
   1059324323,
   1065353216,
   0,
   0,
   0,
   1059324323,
   3208941749,
   1051254784,
   1056964608,
   0,
   1061477428,
   1059301116,
   1065353216,
   0,
   0,
   0,
   1059301116,
   3208961077,
   1059700736,
   1054883840,
   996224969,
   1061490573,
   1059285129,
   1065352969,
   941195883,
   3148994018,
   3146360927,
   1059285284,
   3208974029,
   1051254784,
   1054883840,
   1019839441,
   1061586815,
   1059160109,
   1065340433,
   945817920,
   3172981879,
   3170384107,
   1059168152,
   3209060528,
   1059700736,
   1048576000,
   1023423899,
   1061609832,
   1059126754,
   1065332473,
   826728808,
   3175849612,
   3172872170,
   1059139816,
   3209077365,
   1051254784,
   1048576000;
  }
 }
}