xof 0303txt 0032
template ColorRGBA {
 <35ff44e0-6c7c-11cf-8f52-0040333594a3>
 FLOAT red;
 FLOAT green;
 FLOAT blue;
 FLOAT alpha;
}

template ColorRGB {
 <d3e16e81-7835-11cf-8f52-0040333594a3>
 FLOAT red;
 FLOAT green;
 FLOAT blue;
}

template Material {
 <3d82ab4d-62da-11cf-ab39-0020af71e433>
 ColorRGBA faceColor;
 FLOAT power;
 ColorRGB specularColor;
 ColorRGB emissiveColor;
 [...]
}

template TextureFilename {
 <a42790e1-7810-11cf-8f52-0040333594a3>
 STRING filename;
}

template Frame {
 <3d82ab46-62da-11cf-ab39-0020af71e433>
 [...]
}

template Matrix4x4 {
 <f6f23f45-7686-11cf-8f52-0040333594a3>
 array FLOAT matrix[16];
}

template FrameTransformMatrix {
 <f6f23f41-7686-11cf-8f52-0040333594a3>
 Matrix4x4 frameMatrix;
}

template Vector {
 <3d82ab5e-62da-11cf-ab39-0020af71e433>
 FLOAT x;
 FLOAT y;
 FLOAT z;
}

template MeshFace {
 <3d82ab5f-62da-11cf-ab39-0020af71e433>
 DWORD nFaceVertexIndices;
 array DWORD faceVertexIndices[nFaceVertexIndices];
}

template Mesh {
 <3d82ab44-62da-11cf-ab39-0020af71e433>
 DWORD nVertices;
 array Vector vertices[nVertices];
 DWORD nFaces;
 array MeshFace faces[nFaces];
 [...]
}

template MeshNormals {
 <f6f23f43-7686-11cf-8f52-0040333594a3>
 DWORD nNormals;
 array Vector normals[nNormals];
 DWORD nFaceNormals;
 array MeshFace faceNormals[nFaceNormals];
}

template MeshMaterialList {
 <f6f23f42-7686-11cf-8f52-0040333594a3>
 DWORD nMaterials;
 DWORD nFaceIndexes;
 array DWORD faceIndexes[nFaceIndexes];
 [Material <3d82ab4d-62da-11cf-ab39-0020af71e433>]
}

template Coords2d {
 <f6f23f44-7686-11cf-8f52-0040333594a3>
 FLOAT u;
 FLOAT v;
}

template MeshTextureCoords {
 <f6f23f40-7686-11cf-8f52-0040333594a3>
 DWORD nTextureCoords;
 array Coords2d textureCoords[nTextureCoords];
}


Material MI_Plants {
 1.000000;1.000000;1.000000;1.000000;;
 10.000000;
 0.000000;0.000000;0.000000;;
 0.000000;0.000000;0.000000;;

 TextureFilename {
  "T_PlantAtlasAlpha_BC.tga";
 }
}

Frame SM_LF_Grass03 {
 

 FrameTransformMatrix {
  1.000000,0.000000,0.000000,0.000000,0.000000,1.000000,0.000000,0.000000,0.000000,0.000000,1.000000,0.000000,0.000000,0.000000,0.000000,1.000000;;
 }

 Mesh SM_LF_Grass03 {
  182;
  -31.721094;27.289578;14.376160;,
  -39.473053;31.554851;6.708222;,
  -27.656518;29.796810;0.578461;,
  -30.241686;31.307715;-10.503906;,
  -20.998467;27.491619;-0.990387;,
  -23.199789;28.809034;-22.227997;,
  -27.656518;29.796810;0.578461;,
  -23.934832;23.922173;15.972534;,
  -31.721094;27.289578;14.376160;,
  -18.906902;20.909770;15.622619;,
  -16.297862;24.067824;-1.379456;,
  -12.580314;26.131493;-28.282502;,
  -6.000636;33.338502;-33.720186;,
  -1.589670;29.042733;-24.054138;,
  8.610062;31.014278;-25.566437;,
  -0.114363;25.798795;-18.821229;,
  17.648525;27.426432;-19.923798;,
  -1.589670;29.042733;-24.054138;,
  -14.044280;22.449082;-21.771179;,
  -12.580314;26.131493;-28.282502;,
  -13.723387;19.639954;-17.003448;,
  1.291603;22.582491;-14.486664;,
  24.273322;26.131493;-18.954498;,
  34.441498;29.293866;-14.451141;,
  23.425062;28.564675;-6.935272;,
  27.177786;30.613312;2.561981;,
  18.512426;25.798795;-4.261505;,
  24.157133;27.426432;12.900116;,
  23.425062;28.564675;-6.935272;,
  17.709267;22.449082;-18.707184;,
  24.273322;26.131493;-18.954498;,
  13.263433;19.639954;-17.158021;,
  14.758870;22.582491;-1.758667;,
  19.296701;26.131493;25.616578;,
  14.514294;31.779526;33.720186;,
  7.441920;28.696608;24.578461;,
  -1.862946;30.613312;28.570038;,
  4.847370;25.798795;19.758546;,
  -12.029630;27.426432;25.498443;,
  7.441920;28.696608;24.578461;,
  19.053475;22.449082;18.941834;,
  19.296701;26.131493;25.616578;,
  17.530008;19.639954;14.421021;,
  2.386046;22.582491;15.941682;,
  9.489769;47.267606;-12.448456;,
  17.213795;59.046483;-1.837067;,
  8.260542;45.670454;22.533051;,
  6.203601;39.199030;-14.484832;,
  5.880292;40.644867;27.178224;,
  3.344411;24.251859;-18.970338;,
  4.308028;35.722653;32.916534;,
  -0.761430;5.344678;23.530243;,
  0.347312;4.370810;-28.194368;,
  0.279026;-2.677936;-12.822785;,
  -1.054056;-3.000844;13.890656;,
  13.597208;47.267606;9.730072;,
  5.516500;59.046483;20.063141;,
  -19.950104;45.670454;17.576568;,
  14.681054;39.199030;5.975281;,
  -24.978650;40.644867;16.440918;,
  18.201854;24.251859;2.006012;,
  -30.836445;35.722653;16.381805;,
  -23.232403;5.344678;8.973145;,
  26.188112;4.370810;-3.325134;,
  11.568885;-2.677936;0.586243;,
  -14.151437;-3.000844;6.190826;,
  -26.478675;41.183805;-1.407288;,
  -30.209878;50.691814;-12.837097;,
  -12.147084;40.457011;-24.299714;,
  -7.836011;36.366115;-26.022155;,
  -23.548701;34.379990;1.973999;,
  -3.769624;32.237763;-28.859712;,
  -20.951613;21.174736;7.229278;,
  0.818528;5.260402;-18.339112;,
  -19.360814;3.415805;16.041565;,
  -12.583309;-2.791628;6.153595;,
  -1.446709;-2.454762;-11.201202;,
  -2.291611;41.979757;-25.139008;,
  8.817751;52.527347;-30.593200;,
  28.181786;42.253898;-15.210053;,
  -4.797501;34.785034;-21.919158;,
  31.737267;38.081414;-11.437622;,
  -9.256699;21.082797;-19.050445;,
  36.455293;33.969613;-8.134643;,
  27.341085;6.030998;-3.041748;,
  -17.850398;2.621785;-16.770813;,
  -4.255440;-3.165940;-12.242249;,
  18.904331;-2.087232;-4.387054;,
  -8.762166;52.002240;14.762024;,
  -15.435008;64.927968;4.726898;,
  -4.194064;50.249581;-15.981293;,
  -5.686272;43.148067;16.845856;,
  -1.380949;44.734675;-19.869477;,
  -3.269504;26.745563;21.052216;,
  0.732527;39.333213;-24.792480;,
  4.880510;5.997483;-16.070373;,
  -1.168543;4.928794;29.449677;,
  0.369146;-2.002956;15.899078;,
  4.250077;-3.160601;-7.543366;,
  8.913790;39.161280;-13.586274;,
  18.088989;51.342304;-7.776917;,
  12.500090;44.807379;16.700562;,
  5.084237;31.601853;-13.342530;,
  10.635548;41.323334;21.934051;,
  0.692449;17.036034;-13.882629;,
  9.630492;38.049760;27.983184;,
  1.310885;8.296550;26.567109;,
  -4.896258;-3.093176;-17.474488;,
  -3.462085;-6.635776;-2.971558;,
  -0.987645;-0.671176;20.027038;,
  -14.642677;17.664669;16.099701;,
  -18.906902;20.909770;15.622619;,
  -16.297862;24.067824;-1.379456;,
  -13.317687;20.042806;-1.151886;,
  -10.015092;13.098111;0.268738;,
  -11.994341;12.603518;18.213837;,
  -13.739094;14.494880;-19.461274;,
  -16.202098;20.458267;-21.513947;,
  -16.297862;24.067824;-1.379456;,
  -11.174477;6.305488;-17.585723;,
  -10.015092;13.098111;0.268738;,
  -19.455662;25.666344;-24.479248;,
  -23.199789;28.809034;-22.227997;,
  -20.998467;27.491619;-0.990387;,
  -8.116808;0.660781;-11.891114;,
  -6.638725;-1.955983;3.016785;,
  -10.015092;13.098111;0.268738;,
  -8.950722;-1.099671;19.160645;,
  1.291603;22.582491;-14.486664;,
  -14.160899;16.613830;-12.959930;,
  -13.723387;19.639954;-17.003448;,
  1.659753;18.831493;-11.703522;,
  0.356961;12.355423;-8.571838;,
  -16.099677;11.894205;-10.448639;,
  17.781834;13.657939;-11.980774;,
  18.466587;19.218565;-14.106354;,
  1.291603;22.582491;-14.486664;,
  16.730486;6.021166;-9.671234;,
  0.356961;12.355423;-8.571838;,
  20.105974;24.074520;-17.011658;,
  17.648525;27.426432;-19.923798;,
  -0.114363;25.798795;-18.821229;,
  11.508210;0.903057;-6.771790;,
  -2.163145;-1.682823;-5.370209;,
  0.356961;12.355423;-8.571838;,
  -16.967955;-0.884296;-7.562561;,
  14.758870;22.582491;-1.758667;,
  9.309218;16.613830;-16.541198;,
  13.263433;19.639954;-17.158021;,
  12.210426;18.831493;-0.676727;,
  8.898443;12.355423;-1.145813;,
  6.421948;11.894205;-17.795533;,
  16.646506;13.657939;15.086853;,
  18.842821;19.218565;15.209290;,
  14.758870;22.582491;-1.758667;,
  14.180536;6.021166;14.651978;,
  8.898443;12.355423;-1.145813;,
  22.026907;24.074520;16.067566;,
  24.157133;27.426432;12.900116;,
  18.512426;25.798795;-4.261505;,
  10.074727;0.841901;10.272980;,
  5.204941;-1.682823;-2.792450;,
  8.898443;12.355423;-1.145813;,
  3.455698;-0.884296;-17.901398;,
  16.923426;16.613830;10.400116;,
  17.530008;19.639954;14.421021;,
  2.386046;22.582491;15.941682;,
  1.322053;18.831493;13.350250;,
  1.783361;12.355423;9.982422;,
  18.156950;11.894205;7.464172;,
  -14.180109;13.657939;17.861146;,
  -14.300517;19.218565;20.094514;,
  2.386046;22.582491;15.941682;,
  -13.752427;6.021166;15.353576;,
  1.783361;12.355423;9.982422;,
  -15.144558;24.074520;23.332275;,
  -12.029630;27.426432;25.498443;,
  4.847370;25.798795;19.758546;,
  -9.446075;0.786900;11.178528;,
  3.402696;-1.682823;6.226624;,
  1.783361;12.355423;9.982422;,
  18.261054;-0.884296;4.447906;;
  146;
  3;0,1,2;,
  3;1,3,2;,
  3;4,3,5;,
  3;4,6,3;,
  3;6,7,8;,
  3;7,6,4;,
  3;9,7,4;,
  3;4,10,9;,
  3;11,12,13;,
  3;12,14,13;,
  3;15,14,16;,
  3;14,15,17;,
  3;17,18,19;,
  3;17,15,18;,
  3;20,18,15;,
  3;15,21,20;,
  3;22,23,24;,
  3;23,25,24;,
  3;26,25,27;,
  3;26,28,25;,
  3;29,30,28;,
  3;29,28,26;,
  3;31,29,26;,
  3;26,32,31;,
  3;33,34,35;,
  3;34,36,35;,
  3;37,36,38;,
  3;37,39,36;,
  3;40,41,39;,
  3;40,39,37;,
  3;42,40,37;,
  3;37,43,42;,
  3;44,45,46;,
  3;47,44,46;,
  3;47,46,48;,
  3;49,47,48;,
  3;49,48,50;,
  3;49,50,51;,
  3;51,52,49;,
  3;51,53,52;,
  3;51,54,53;,
  3;55,56,57;,
  3;58,55,57;,
  3;58,57,59;,
  3;60,58,59;,
  3;60,59,61;,
  3;60,61,62;,
  3;62,63,60;,
  3;62,64,63;,
  3;62,65,64;,
  3;66,67,68;,
  3;66,68,69;,
  3;69,70,66;,
  3;70,69,71;,
  3;71,72,70;,
  3;72,71,73;,
  3;73,74,72;,
  3;73,75,74;,
  3;73,76,75;,
  3;77,78,79;,
  3;80,77,79;,
  3;79,81,80;,
  3;82,80,81;,
  3;81,83,82;,
  3;82,83,84;,
  3;84,85,82;,
  3;84,86,85;,
  3;84,87,86;,
  3;88,89,90;,
  3;90,91,88;,
  3;91,90,92;,
  3;92,93,91;,
  3;93,92,94;,
  3;93,94,95;,
  3;95,96,93;,
  3;95,97,96;,
  3;95,98,97;,
  3;99,100,101;,
  3;102,99,101;,
  3;102,101,103;,
  3;104,102,103;,
  3;104,103,105;,
  3;104,105,106;,
  3;106,107,104;,
  3;106,108,107;,
  3;106,109,108;,
  3;110,111,112;,
  3;112,113,110;,
  3;110,113,114;,
  3;114,115,110;,
  3;113,116,114;,
  3;117,116,113;,
  3;117,113,118;,
  3;116,119,120;,
  3;118,121,117;,
  3;122,121,118;,
  3;118,123,122;,
  3;124,125,119;,
  3;119,125,126;,
  3;115,126,125;,
  3;125,127,115;,
  3;128,129,130;,
  3;128,131,129;,
  3;129,131,132;,
  3;132,133,129;,
  3;132,131,134;,
  3;135,134,131;,
  3;135,131,136;,
  3;134,137,138;,
  3;136,139,135;,
  3;140,139,136;,
  3;136,141,140;,
  3;142,143,137;,
  3;137,143,144;,
  3;133,144,143;,
  3;143,145,133;,
  3;146,147,148;,
  3;147,146,149;,
  3;147,149,150;,
  3;150,151,147;,
  3;150,149,152;,
  3;149,153,152;,
  3;153,149,154;,
  3;152,155,156;,
  3;154,157,153;,
  3;158,157,154;,
  3;154,159,158;,
  3;160,161,155;,
  3;155,161,162;,
  3;151,162,161;,
  3;161,163,151;,
  3;164,165,166;,
  3;166,167,164;,
  3;164,167,168;,
  3;168,169,164;,
  3;170,168,167;,
  3;167,171,170;,
  3;171,167,172;,
  3;170,173,174;,
  3;172,175,171;,
  3;176,175,172;,
  3;172,177,176;,
  3;178,179,173;,
  3;173,179,180;,
  3;169,180,179;,
  3;179,181,169;;

  MeshNormals {
   182;
   -0.302247;-0.918240;-0.255894;,
   -0.242983;-0.950037;-0.195932;,
   -0.285078;-0.946253;-0.152758;,
   -0.318513;-0.946987;-0.042012;,
   -0.517686;-0.851731;-0.080967;,
   -0.500384;-0.865790;0.004824;,
   -0.285078;-0.946253;-0.152758;,
   -0.429912;-0.864142;-0.261600;,
   -0.302247;-0.918240;-0.255894;,
   -0.548644;-0.799405;-0.244829;,
   -0.695845;-0.709240;-0.113042;,
   0.387715;-0.800877;-0.456370;,
   0.295586;-0.815631;-0.497368;,
   0.216763;-0.835925;-0.504226;,
   0.062940;-0.838633;-0.541049;,
   0.120484;-0.795896;-0.593324;,
   0.002963;-0.758347;-0.651844;,
   0.216763;-0.835925;-0.504226;,
   0.327644;-0.818151;-0.472524;,
   0.387715;-0.800877;-0.456370;,
   0.269750;-0.793282;-0.545838;,
   0.127898;-0.690491;-0.711944;,
   0.348872;-0.913445;0.209540;,
   0.190417;-0.964003;0.185577;,
   0.352397;-0.926308;0.133305;,
   0.446455;-0.894547;-0.021516;,
   0.591550;-0.805740;-0.029172;,
   0.621123;-0.767528;-0.158455;,
   0.352397;-0.926308;0.133305;,
   0.535514;-0.826298;0.174518;,
   0.348872;-0.913445;0.209540;,
   0.602708;-0.789682;0.114653;,
   0.726024;-0.684862;-0.062069;,
   -0.225783;-0.853123;0.470323;,
   -0.161072;-0.890746;0.425003;,
   -0.095172;-0.882299;0.460967;,
   0.054591;-0.872209;0.486078;,
   0.033648;-0.806363;0.590463;,
   0.161960;-0.772226;0.614359;,
   -0.095172;-0.882299;0.460967;,
   -0.182573;-0.826246;0.532903;,
   -0.225783;-0.853123;0.470323;,
   -0.117005;-0.794043;0.596494;,
   0.063802;-0.690599;0.720418;,
   0.896065;-0.443781;0.011225;,
   0.834506;-0.550984;0.004168;,
   0.899886;-0.435765;0.017703;,
   0.962174;-0.272025;0.014993;,
   0.954273;-0.297169;0.032464;,
   0.984313;-0.175177;0.021019;,
   0.976468;-0.213688;0.029106;,
   0.990142;-0.137637;0.025988;,
   0.994240;-0.104614;0.023282;,
   0.999423;0.024894;0.023111;,
   0.994673;-0.090941;0.048538;,
   0.223665;-0.449661;0.864742;,
   0.214200;-0.556983;0.802426;,
   0.218288;-0.441736;0.870184;,
   0.237725;-0.276033;0.931286;,
   0.218283;-0.301856;0.928028;,
   0.237713;-0.177943;0.954897;,
   0.227462;-0.217235;0.949247;,
   0.234301;-0.139423;0.962114;,
   0.238163;-0.105856;0.965439;,
   0.239677;0.025096;0.970528;,
   0.213105;-0.092388;0.972651;,
   -0.686951;-0.596207;-0.415495;,
   -0.624302;-0.688551;-0.368978;,
   -0.690749;-0.593124;-0.413606;,
   -0.753130;-0.476405;-0.453689;,
   -0.769363;-0.432122;-0.470480;,
   -0.795736;-0.370196;-0.479331;,
   -0.806740;-0.330667;-0.489723;,
   -0.816378;-0.291235;-0.498707;,
   -0.827078;-0.258162;-0.499295;,
   -0.849520;-0.136298;-0.509646;,
   -0.813035;-0.248438;-0.526548;,
   0.266434;-0.533099;-0.803006;,
   0.244266;-0.635862;-0.732130;,
   0.273750;-0.525132;-0.805790;,
   0.285147;-0.364529;-0.886459;,
   0.300763;-0.388966;-0.870774;,
   0.295176;-0.268009;-0.917084;,
   0.301949;-0.306401;-0.902743;,
   0.300865;-0.230136;-0.925483;,
   0.298555;-0.196566;-0.933931;,
   0.296793;-0.066664;-0.952612;,
   0.323425;-0.182242;-0.928539;,
   -0.902308;-0.416738;-0.110315;,
   -0.851613;-0.515085;-0.097175;,
   -0.906035;-0.406439;-0.117931;,
   -0.960046;-0.252204;-0.121263;,
   -0.951144;-0.275742;-0.138892;,
   -0.978403;-0.160810;-0.129878;,
   -0.970263;-0.198100;-0.139092;,
   -0.983206;-0.121121;-0.136515;,
   -0.986693;-0.093099;-0.133305;,
   -0.990713;0.023465;-0.133932;,
   -0.984021;-0.080251;-0.158943;,
   0.859987;-0.510271;-0.006707;,
   0.794192;-0.607364;0.019184;,
   0.864422;-0.502761;-0.002525;,
   0.933171;-0.355827;-0.050783;,
   0.925754;-0.377184;-0.026687;,
   0.960545;-0.269376;-0.069207;,
   0.951441;-0.303624;-0.050728;,
   0.968286;-0.239412;-0.071442;,
   0.975397;-0.203472;-0.084850;,
   0.989233;-0.093516;-0.112570;,
   0.975586;-0.213975;-0.049470;,
   -0.775549;-0.610490;-0.160703;,
   -0.548644;-0.799405;-0.244829;,
   -0.695845;-0.709240;-0.113042;,
   -0.860404;-0.509611;-0.001349;,
   -0.949969;-0.307671;0.053837;,
   -0.930128;-0.348332;-0.116302;,
   -0.937272;-0.318773;0.141085;,
   -0.888679;-0.447340;0.100681;,
   -0.695845;-0.709240;-0.113042;,
   -0.952055;-0.276921;0.130026;,
   -0.949969;-0.307671;0.053837;,
   -0.745981;-0.663604;0.056056;,
   -0.500384;-0.865790;0.004824;,
   -0.517686;-0.851731;-0.080967;,
   -0.881109;-0.472894;0.004353;,
   -0.970560;-0.239875;-0.021762;,
   -0.949969;-0.307671;0.053837;,
   -0.966474;-0.223408;-0.126561;,
   0.127898;-0.690491;-0.711944;,
   0.168079;-0.613417;-0.771666;,
   0.269750;-0.793282;-0.545838;,
   -0.002390;-0.510891;-0.859642;,
   -0.055280;-0.312129;-0.948430;,
   0.119894;-0.353693;-0.927646;,
   -0.145438;-0.318090;-0.936839;,
   -0.099593;-0.440246;-0.892337;,
   0.127898;-0.690491;-0.711944;,
   -0.132015;-0.283300;-0.949902;,
   -0.055280;-0.312129;-0.948430;,
   -0.061389;-0.589253;-0.805613;,
   0.002963;-0.758347;-0.651844;,
   0.120484;-0.795896;-0.593324;,
   0.004982;-0.496745;-0.867882;,
   0.023368;-0.244727;-0.969310;,
   -0.055280;-0.312129;-0.948430;,
   0.130683;-0.226856;-0.965121;,
   0.726024;-0.684862;-0.062069;,
   0.792735;-0.608309;-0.039131;,
   0.602708;-0.789682;0.114653;,
   0.833794;-0.505285;-0.222427;,
   0.904795;-0.307888;-0.294196;,
   0.928969;-0.348631;-0.124392;,
   0.871809;-0.313979;-0.375988;,
   0.840990;-0.434937;-0.321816;,
   0.726024;-0.684862;-0.062069;,
   0.887410;-0.279033;-0.366940;,
   0.904795;-0.307888;-0.294196;,
   0.768274;-0.582944;-0.264446;,
   0.621123;-0.767528;-0.158455;,
   0.591550;-0.805740;-0.029172;,
   0.846741;-0.483385;-0.222192;,
   0.943972;-0.240545;-0.225955;,
   0.904795;-0.307888;-0.294196;,
   0.966839;-0.223405;-0.123743;,
   0.041034;-0.613264;0.788811;,
   -0.117005;-0.794043;0.596494;,
   0.063802;-0.690599;0.720418;,
   0.228209;-0.510467;0.829062;,
   0.302388;-0.311738;0.900767;,
   0.128344;-0.353386;0.926632;,
   0.386187;-0.317464;0.866069;,
   0.330434;-0.439676;0.835164;,
   0.063802;-0.690599;0.720418;,
   0.377625;-0.280859;0.882337;,
   0.302388;-0.311738;0.900767;,
   0.270905;-0.588871;0.761474;,
   0.161960;-0.772226;0.614359;,
   0.033648;-0.806363;0.590463;,
   0.232836;-0.482123;0.844597;,
   0.232782;-0.243874;0.941455;,
   0.302388;-0.311738;0.900767;,
   0.127775;-0.226860;0.965509;;
   146;
   3;0,1,2;,
   3;1,3,2;,
   3;4,3,5;,
   3;4,6,3;,
   3;6,7,8;,
   3;7,6,4;,
   3;9,7,4;,
   3;4,10,9;,
   3;11,12,13;,
   3;12,14,13;,
   3;15,14,16;,
   3;14,15,17;,
   3;17,18,19;,
   3;17,15,18;,
   3;20,18,15;,
   3;15,21,20;,
   3;22,23,24;,
   3;23,25,24;,
   3;26,25,27;,
   3;26,28,25;,
   3;29,30,28;,
   3;29,28,26;,
   3;31,29,26;,
   3;26,32,31;,
   3;33,34,35;,
   3;34,36,35;,
   3;37,36,38;,
   3;37,39,36;,
   3;40,41,39;,
   3;40,39,37;,
   3;42,40,37;,
   3;37,43,42;,
   3;44,45,46;,
   3;47,44,46;,
   3;47,46,48;,
   3;49,47,48;,
   3;49,48,50;,
   3;49,50,51;,
   3;51,52,49;,
   3;51,53,52;,
   3;51,54,53;,
   3;55,56,57;,
   3;58,55,57;,
   3;58,57,59;,
   3;60,58,59;,
   3;60,59,61;,
   3;60,61,62;,
   3;62,63,60;,
   3;62,64,63;,
   3;62,65,64;,
   3;66,67,68;,
   3;66,68,69;,
   3;69,70,66;,
   3;70,69,71;,
   3;71,72,70;,
   3;72,71,73;,
   3;73,74,72;,
   3;73,75,74;,
   3;73,76,75;,
   3;77,78,79;,
   3;80,77,79;,
   3;79,81,80;,
   3;82,80,81;,
   3;81,83,82;,
   3;82,83,84;,
   3;84,85,82;,
   3;84,86,85;,
   3;84,87,86;,
   3;88,89,90;,
   3;90,91,88;,
   3;91,90,92;,
   3;92,93,91;,
   3;93,92,94;,
   3;93,94,95;,
   3;95,96,93;,
   3;95,97,96;,
   3;95,98,97;,
   3;99,100,101;,
   3;102,99,101;,
   3;102,101,103;,
   3;104,102,103;,
   3;104,103,105;,
   3;104,105,106;,
   3;106,107,104;,
   3;106,108,107;,
   3;106,109,108;,
   3;110,111,112;,
   3;112,113,110;,
   3;110,113,114;,
   3;114,115,110;,
   3;113,116,114;,
   3;117,116,113;,
   3;117,113,118;,
   3;116,119,120;,
   3;118,121,117;,
   3;122,121,118;,
   3;118,123,122;,
   3;124,125,119;,
   3;119,125,126;,
   3;115,126,125;,
   3;125,127,115;,
   3;128,129,130;,
   3;128,131,129;,
   3;129,131,132;,
   3;132,133,129;,
   3;132,131,134;,
   3;135,134,131;,
   3;135,131,136;,
   3;134,137,138;,
   3;136,139,135;,
   3;140,139,136;,
   3;136,141,140;,
   3;142,143,137;,
   3;137,143,144;,
   3;133,144,143;,
   3;143,145,133;,
   3;146,147,148;,
   3;147,146,149;,
   3;147,149,150;,
   3;150,151,147;,
   3;150,149,152;,
   3;149,153,152;,
   3;153,149,154;,
   3;152,155,156;,
   3;154,157,153;,
   3;158,157,154;,
   3;154,159,158;,
   3;160,161,155;,
   3;155,161,162;,
   3;151,162,161;,
   3;161,163,151;,
   3;164,165,166;,
   3;166,167,164;,
   3;164,167,168;,
   3;168,169,164;,
   3;170,168,167;,
   3;167,171,170;,
   3;171,167,172;,
   3;170,173,174;,
   3;172,175,171;,
   3;176,175,172;,
   3;172,177,176;,
   3;178,179,173;,
   3;173,179,180;,
   3;169,180,179;,
   3;179,181,169;;
  }

  MeshMaterialList {
   1;
   146;
   0,
   0,
   0,
   0,
   0,
   0,
   0,
   0,
   0,
   0,
   0,
   0,
   0,
   0,
   0,
   0,
   0,
   0,
   0,
   0,
   0,
   0,
   0,
   0,
   0,
   0,
   0,
   0,
   0,
   0,
   0,
   0,
   0,
   0,
   0,
   0,
   0,
   0,
   0,
   0,
   0,
   0,
   0,
   0,
   0,
   0,
   0,
   0,
   0,
   0,
   0,
   0,
   0,
   0,
   0,
   0,
   0,
   0,
   0,
   0,
   0,
   0,
   0,
   0,
   0,
   0,
   0,
   0,
   0,
   0,
   0,
   0,
   0,
   0,
   0,
   0,
   0,
   0,
   0,
   0,
   0,
   0,
   0,
   0,
   0,
   0,
   0,
   0,
   0,
   0,
   0,
   0,
   0,
   0,
   0,
   0,
   0,
   0,
   0,
   0,
   0,
   0,
   0,
   0,
   0,
   0,
   0,
   0,
   0,
   0,
   0,
   0,
   0,
   0,
   0,
   0,
   0,
   0,
   0,
   0,
   0,
   0,
   0,
   0,
   0,
   0,
   0,
   0,
   0,
   0,
   0,
   0,
   0,
   0,
   0,
   0,
   0,
   0,
   0,
   0,
   0,
   0,
   0,
   0,
   0,
   0;
   { MI_Plants }
  }

  MeshTextureCoords c1 {
   182;
   0.529297;0.238403;,
   0.566895;0.234985;,
   0.577148;0.253906;,
   0.612793;0.244141;,
   0.581055;0.276123;,
   0.652832;0.268066;,
   0.577148;0.253906;,
   0.516602;0.267578;,
   0.529297;0.238403;,
   0.515137;0.287354;,
   0.582031;0.294922;,
   0.529297;0.238403;,
   0.581055;0.233521;,
   0.578613;0.252686;,
   0.608398;0.241211;,
   0.581055;0.276123;,
   0.652832;0.268066;,
   0.578613;0.252686;,
   0.516602;0.267578;,
   0.529297;0.238403;,
   0.515137;0.287354;,
   0.582031;0.294922;,
   0.529297;0.238403;,
   0.563965;0.221924;,
   0.576172;0.250732;,
   0.612793;0.244141;,
   0.581055;0.276123;,
   0.652832;0.268066;,
   0.576172;0.250732;,
   0.516602;0.267578;,
   0.529297;0.238403;,
   0.515137;0.287354;,
   0.582031;0.294922;,
   0.529297;0.238403;,
   0.574707;0.229614;,
   0.577148;0.251953;,
   0.612793;0.244141;,
   0.581055;0.276123;,
   0.652832;0.268066;,
   0.577148;0.251953;,
   0.516602;0.267578;,
   0.529297;0.238403;,
   0.515137;0.287354;,
   0.582031;0.294922;,
   0.523438;0.250488;,
   0.555664;0.223633;,
   0.628906;0.252441;,
   0.517578;0.271973;,
   0.644043;0.265381;,
   0.505371;0.314453;,
   0.661621;0.279541;,
   0.637207;0.364990;,
   0.479248;0.371826;,
   0.527344;0.391846;,
   0.608887;0.390625;,
   0.523438;0.250488;,
   0.555664;0.223633;,
   0.628906;0.252441;,
   0.517578;0.271973;,
   0.644043;0.265381;,
   0.505371;0.314453;,
   0.661621;0.279541;,
   0.637207;0.364990;,
   0.479248;0.371826;,
   0.527344;0.391846;,
   0.608887;0.390625;,
   0.523438;0.250488;,
   0.555664;0.223633;,
   0.628906;0.252441;,
   0.644043;0.265381;,
   0.517578;0.271973;,
   0.661621;0.279541;,
   0.505371;0.314453;,
   0.637207;0.364990;,
   0.479248;0.371826;,
   0.527344;0.391846;,
   0.608887;0.390625;,
   0.523438;0.250488;,
   0.555664;0.223633;,
   0.628906;0.252441;,
   0.517578;0.271973;,
   0.644043;0.265381;,
   0.505371;0.314453;,
   0.661621;0.279541;,
   0.637207;0.364990;,
   0.479248;0.371826;,
   0.527344;0.391846;,
   0.608887;0.390625;,
   0.523438;0.250488;,
   0.555664;0.223633;,
   0.628906;0.252441;,
   0.517578;0.271973;,
   0.644043;0.265381;,
   0.505371;0.314453;,
   0.661621;0.279541;,
   0.637207;0.364990;,
   0.479248;0.371826;,
   0.526855;0.389648;,
   0.608887;0.390625;,
   0.523438;0.250488;,
   0.555664;0.223633;,
   0.628906;0.252441;,
   0.517578;0.271973;,
   0.644043;0.265381;,
   0.505371;0.314453;,
   0.661621;0.279541;,
   0.637207;0.364990;,
   0.479248;0.371826;,
   0.527344;0.391846;,
   0.609375;0.388428;,
   0.508789;0.306641;,
   0.515137;0.287354;,
   0.582031;0.294922;,
   0.580566;0.311279;,
   0.574219;0.336182;,
   0.493652;0.330078;,
   0.649902;0.322266;,
   0.653320;0.301758;,
   0.582031;0.294922;,
   0.650879;0.351074;,
   0.574219;0.336182;,
   0.661133;0.282715;,
   0.652832;0.268066;,
   0.581055;0.276123;,
   0.631836;0.377441;,
   0.563965;0.392578;,
   0.574219;0.336182;,
   0.477051;0.393066;,
   0.582031;0.294922;,
   0.508789;0.306641;,
   0.515137;0.287354;,
   0.580566;0.311279;,
   0.574219;0.336182;,
   0.493652;0.330078;,
   0.649902;0.322266;,
   0.653320;0.301758;,
   0.582031;0.294922;,
   0.650879;0.351074;,
   0.574219;0.336182;,
   0.661133;0.282715;,
   0.652832;0.268066;,
   0.581055;0.276123;,
   0.631348;0.376709;,
   0.563965;0.392578;,
   0.574219;0.336182;,
   0.477051;0.393066;,
   0.582031;0.294922;,
   0.508789;0.306641;,
   0.515137;0.287354;,
   0.580566;0.311279;,
   0.574219;0.336182;,
   0.493652;0.330078;,
   0.649902;0.322266;,
   0.653320;0.301758;,
   0.582031;0.294922;,
   0.650879;0.351074;,
   0.574219;0.336182;,
   0.661133;0.282715;,
   0.652832;0.268066;,
   0.581055;0.276123;,
   0.631836;0.376953;,
   0.563965;0.392578;,
   0.574219;0.336182;,
   0.477051;0.393066;,
   0.508789;0.306641;,
   0.515137;0.287354;,
   0.582031;0.294922;,
   0.580566;0.311279;,
   0.574219;0.336182;,
   0.493652;0.330078;,
   0.649902;0.322266;,
   0.653320;0.301758;,
   0.582031;0.294922;,
   0.650879;0.351074;,
   0.574219;0.336182;,
   0.661133;0.282715;,
   0.652832;0.268066;,
   0.581055;0.276123;,
   0.631836;0.377197;,
   0.563965;0.392578;,
   0.574219;0.336182;,
   0.477051;0.393066;;
  }

  MeshTextureCoords c2 {
   182;
   0.345215;0.701660;,
   0.435303;0.618652;,
   0.427490;0.707031;,
   0.499756;0.714355;,
   0.411621;0.764648;,
   0.523926;0.845215;,
   0.427490;0.707031;,
   0.308838;0.766113;,
   0.345215;0.701660;,
   0.296875;0.793457;,
   0.396240;0.791992;,
   0.345215;0.701660;,
   0.467041;0.596680;,
   0.430420;0.706055;,
   0.496826;0.708496;,
   0.411621;0.764648;,
   0.523926;0.845215;,
   0.430420;0.706055;,
   0.308838;0.766113;,
   0.345215;0.701660;,
   0.296875;0.793457;,
   0.396240;0.791992;,
   0.345215;0.701660;,
   0.434814;0.644531;,
   0.425537;0.714355;,
   0.499756;0.714355;,
   0.411621;0.764648;,
   0.523926;0.845215;,
   0.425537;0.714355;,
   0.308838;0.766113;,
   0.345215;0.701660;,
   0.296875;0.793457;,
   0.396240;0.791992;,
   0.345215;0.701660;,
   0.454102;0.615723;,
   0.427734;0.712402;,
   0.499756;0.714355;,
   0.411621;0.764648;,
   0.523926;0.845215;,
   0.427734;0.712402;,
   0.308838;0.766113;,
   0.345215;0.701660;,
   0.296875;0.793457;,
   0.396240;0.791992;,
   0.701660;0.693359;,
   0.735840;0.651367;,
   0.784180;0.716797;,
   0.693848;0.735840;,
   0.784180;0.691895;,
   0.703125;0.843750;,
   0.758301;0.675781;,
   0.842285;0.954102;,
   0.680176;0.974121;,
   0.678711;0.987793;,
   0.714355;0.973145;,
   0.701660;0.693359;,
   0.735840;0.651367;,
   0.784180;0.716797;,
   0.693848;0.735840;,
   0.784180;0.691895;,
   0.703125;0.843750;,
   0.758301;0.675781;,
   0.842285;0.954102;,
   0.680176;0.974121;,
   0.678711;0.987793;,
   0.714355;0.973145;,
   0.701660;0.693359;,
   0.735840;0.651367;,
   0.784180;0.716797;,
   0.784180;0.691895;,
   0.693848;0.735840;,
   0.758301;0.675781;,
   0.703125;0.843750;,
   0.842285;0.954102;,
   0.680176;0.974121;,
   0.678711;0.987793;,
   0.714355;0.973145;,
   0.701660;0.693359;,
   0.735840;0.651367;,
   0.784180;0.716797;,
   0.693848;0.735840;,
   0.784180;0.691895;,
   0.703125;0.843750;,
   0.758301;0.675781;,
   0.842285;0.954102;,
   0.680176;0.974121;,
   0.678711;0.987793;,
   0.714355;0.973145;,
   0.701660;0.693359;,
   0.735840;0.651367;,
   0.784180;0.716797;,
   0.693848;0.735840;,
   0.784180;0.691895;,
   0.703125;0.843750;,
   0.758301;0.675781;,
   0.842285;0.954102;,
   0.680176;0.974121;,
   0.685059;0.985840;,
   0.714355;0.973145;,
   0.701660;0.693359;,
   0.735840;0.651367;,
   0.784180;0.716797;,
   0.693848;0.735840;,
   0.784180;0.691895;,
   0.703125;0.843750;,
   0.758301;0.675781;,
   0.842285;0.954102;,
   0.680176;0.974121;,
   0.678711;0.987793;,
   0.715820;0.970215;,
   0.271484;0.829102;,
   0.287598;0.803223;,
   0.404053;0.794922;,
   0.384033;0.820313;,
   0.309082;0.903320;,
   0.238770;0.869629;,
   0.456787;0.904785;,
   0.513184;0.831543;,
   0.404053;0.794922;,
   0.525391;0.951660;,
   0.309082;0.903320;,
   0.571777;0.765625;,
   0.564453;0.756348;,
   0.406006;0.792480;,
   0.510742;0.974609;,
   0.420654;0.972168;,
   0.309082;0.903320;,
   0.379639;0.939453;,
   0.404053;0.794922;,
   0.271484;0.829102;,
   0.287598;0.803223;,
   0.384033;0.820313;,
   0.309082;0.903320;,
   0.238770;0.869629;,
   0.456787;0.904785;,
   0.513184;0.831543;,
   0.404053;0.794922;,
   0.525391;0.951660;,
   0.309082;0.903320;,
   0.571777;0.765625;,
   0.564453;0.756348;,
   0.406006;0.792480;,
   0.510254;0.974121;,
   0.420654;0.972168;,
   0.309082;0.903320;,
   0.379639;0.939453;,
   0.404053;0.794922;,
   0.271484;0.829102;,
   0.287598;0.803223;,
   0.384033;0.820313;,
   0.309082;0.903320;,
   0.238770;0.869629;,
   0.456787;0.904785;,
   0.513184;0.831543;,
   0.404053;0.794922;,
   0.525391;0.951660;,
   0.309082;0.903320;,
   0.571777;0.765625;,
   0.564453;0.756348;,
   0.406006;0.792480;,
   0.510254;0.974121;,
   0.420654;0.972168;,
   0.309082;0.903320;,
   0.379639;0.939453;,
   0.271484;0.829102;,
   0.287598;0.803223;,
   0.404053;0.794922;,
   0.384033;0.820313;,
   0.309082;0.903320;,
   0.238770;0.869629;,
   0.456787;0.904785;,
   0.513184;0.831543;,
   0.404053;0.794922;,
   0.525391;0.951660;,
   0.309082;0.903320;,
   0.571777;0.765625;,
   0.564453;0.756348;,
   0.406006;0.792480;,
   0.510742;0.974609;,
   0.420654;0.972168;,
   0.309082;0.903320;,
   0.379639;0.939453;;
  }
 }
}