xof 0303txt 0032
template ColorRGBA {
 <35ff44e0-6c7c-11cf-8f52-0040333594a3>
 FLOAT red;
 FLOAT green;
 FLOAT blue;
 FLOAT alpha;
}

template ColorRGB {
 <d3e16e81-7835-11cf-8f52-0040333594a3>
 FLOAT red;
 FLOAT green;
 FLOAT blue;
}

template Material {
 <3d82ab4d-62da-11cf-ab39-0020af71e433>
 ColorRGBA faceColor;
 FLOAT power;
 ColorRGB specularColor;
 ColorRGB emissiveColor;
 [...]
}

template TextureFilename {
 <a42790e1-7810-11cf-8f52-0040333594a3>
 STRING filename;
}

template Frame {
 <3d82ab46-62da-11cf-ab39-0020af71e433>
 [...]
}

template Matrix4x4 {
 <f6f23f45-7686-11cf-8f52-0040333594a3>
 array FLOAT matrix[16];
}

template FrameTransformMatrix {
 <f6f23f41-7686-11cf-8f52-0040333594a3>
 Matrix4x4 frameMatrix;
}

template Vector {
 <3d82ab5e-62da-11cf-ab39-0020af71e433>
 FLOAT x;
 FLOAT y;
 FLOAT z;
}

template MeshFace {
 <3d82ab5f-62da-11cf-ab39-0020af71e433>
 DWORD nFaceVertexIndices;
 array DWORD faceVertexIndices[nFaceVertexIndices];
}

template Mesh {
 <3d82ab44-62da-11cf-ab39-0020af71e433>
 DWORD nVertices;
 array Vector vertices[nVertices];
 DWORD nFaces;
 array MeshFace faces[nFaces];
 [...]
}

template MeshNormals {
 <f6f23f43-7686-11cf-8f52-0040333594a3>
 DWORD nNormals;
 array Vector normals[nNormals];
 DWORD nFaceNormals;
 array MeshFace faceNormals[nFaceNormals];
}

template MeshMaterialList {
 <f6f23f42-7686-11cf-8f52-0040333594a3>
 DWORD nMaterials;
 DWORD nFaceIndexes;
 array DWORD faceIndexes[nFaceIndexes];
 [Material <3d82ab4d-62da-11cf-ab39-0020af71e433>]
}

template Coords2d {
 <f6f23f44-7686-11cf-8f52-0040333594a3>
 FLOAT u;
 FLOAT v;
}

template MeshTextureCoords {
 <f6f23f40-7686-11cf-8f52-0040333594a3>
 DWORD nTextureCoords;
 array Coords2d textureCoords[nTextureCoords];
}


Material MI_Plants {
 1.000000;1.000000;1.000000;1.000000;;
 10.000000;
 0.000000;0.000000;0.000000;;
 0.000000;0.000000;0.000000;;

 TextureFilename {
  "T_PlantAtlasAlpha_BC.tga";
 }
}

Frame SM_LF_ElderPlant01 {
 

 FrameTransformMatrix {
  1.000000,0.000000,0.000000,0.000000,0.000000,1.000000,0.000000,0.000000,0.000000,0.000000,1.000000,0.000000,0.000000,0.000000,0.000000,1.000000;;
 }

 Mesh SM_LF_ElderPlant01 {
  364;
  23.099062;36.363808;-13.149182;,
  15.738962;42.482045;-15.659488;,
  12.841709;38.283629;-23.432589;,
  14.441384;32.590448;-25.620213;,
  26.421162;30.285414;-13.053852;,
  15.426432;25.109600;-27.555552;,
  28.344314;22.167336;-12.320230;,
  16.919728;13.438477;-25.181530;,
  28.268246;10.328428;-12.768980;,
  17.646086;0.602517;-21.665322;,
  22.619250;-1.117865;-16.882229;,
  26.295429;33.417642;19.935411;,
  28.883405;40.526976;11.169887;,
  35.566083;38.254464;4.320104;,
  38.259478;32.112890;0.734432;,
  25.898432;22.046973;21.719158;,
  37.692035;17.483605;0.564445;,
  25.462437;10.142738;20.286990;,
  32.911910;1.644049;-2.641274;,
  22.427106;-1.035635;17.986886;,
  24.154266;-4.381769;10.886979;,
  29.223728;-2.819623;0.769528;,
  -23.580211;37.695504;17.996194;,
  -17.037027;44.297171;21.388878;,
  -13.892768;39.661942;28.809798;,
  -14.891750;33.630746;30.353728;,
  -26.183600;31.329664;17.165061;,
  -15.132662;25.817566;31.622262;,
  -26.953472;22.928456;15.313470;,
  -14.326710;13.799173;26.282528;,
  -24.026150;10.581900;13.271615;,
  -13.092758;0.923607;20.575718;,
  -17.576744;-0.774811;15.848750;,
  -27.045155;35.272403;-18.065026;,
  -21.654216;41.132838;-26.483347;,
  -11.792560;40.316995;-27.908733;,
  -25.421483;24.858408;-12.233860;,
  -5.156653;35.374438;-27.018422;,
  -3.149396;20.214046;-22.443619;,
  -21.740515;12.298068;-10.294395;,
  -1.147632;2.299796;-21.311712;,
  -19.721669;0.146420;-9.218106;,
  -13.294500;-3.465170;-12.424143;,
  -4.259454;-2.165488;-18.491514;,
  -21.246648;43.998451;-15.136192;,
  -22.975730;51.708282;-8.553945;,
  -28.793370;46.207443;-2.633174;,
  -30.145043;39.190886;-2.380311;,
  -20.788578;36.635075;-17.134282;,
  -30.875405;30.192816;-1.259190;,
  -19.146666;26.985795;-17.843078;,
  -25.587379;16.429589;-1.347066;,
  -15.857330;12.826318;-14.836326;,
  -18.994229;1.761559;-1.173893;,
  -15.711299;-0.174931;-6.777798;,
  39.965187;47.363504;-22.310403;,
  46.355053;52.795472;-9.816339;,
  42.975606;48.895120;1.877811;,
  39.746173;40.709824;6.376849;,
  33.381683;34.362461;-26.921667;,
  32.602426;22.776402;3.622261;,
  28.864598;19.405152;-28.096874;,
  32.879443;1.192442;0.009132;,
  28.789344;4.122579;-29.902288;,
  30.386042;-2.477925;-21.774189;,
  32.552269;-3.627109;-7.205136;,
  5.057061;46.695011;22.581350;,
  15.284379;53.814586;19.408709;,
  24.049312;45.788224;21.586941;,
  23.316558;37.773021;23.124744;,
  0.597881;38.972003;23.816186;,
  22.490627;27.520176;23.460075;,
  -4.002551;28.693917;22.961243;,
  15.742181;13.384234;19.515174;,
  -6.282164;13.091249;18.869366;,
  8.383275;-1.650002;13.598493;,
  -0.587811;-2.542269;13.746906;,
  -15.471466;54.866106;-34.228234;,
  -9.321800;61.379187;-45.945702;,
  3.450665;56.073229;-45.064381;,
  -16.411869;47.437770;-27.117005;,
  6.470130;49.063322;-39.579894;,
  -17.347189;36.270170;-20.621338;,
  9.779930;39.152269;-34.088051;,
  7.045343;21.555134;-27.919776;,
  -15.295726;19.093470;-14.553699;,
  -5.480575;0.829248;-17.325770;,
  3.029655;1.959357;-23.837915;,
  32.952720;54.300928;-29.016454;,
  18.580822;63.528403;-26.525715;,
  5.438441;59.065907;-31.249690;,
  -0.242058;49.395126;-32.893338;,
  37.408538;37.436928;-30.782624;,
  1.471975;26.975024;-34.143856;,
  37.876794;18.979894;-31.558406;,
  2.190729;3.061673;-25.382088;,
  37.135421;2.209527;-26.541626;,
  26.077224;-3.500340;-24.181824;,
  9.046535;-2.728511;-23.850125;,
  33.380531;58.028621;24.728797;,
  28.315725;66.075334;36.004285;,
  15.990107;59.996531;37.791210;,
  33.965882;49.569942;18.834522;,
  12.839996;52.004650;33.977856;,
  9.628253;41.140518;30.661523;,
  34.917901;37.535254;14.139514;,
  11.929394;23.239558;25.799306;,
  33.778563;19.523666;10.754407;,
  18.459997;3.659010;22.296973;,
  26.924909;1.557353;15.551366;,
  -19.952875;49.422109;23.669494;,
  -29.523366;59.131878;13.085157;,
  -27.974144;58.771584;-1.489526;,
  -11.738109;33.940778;23.207520;,
  -25.254589;51.370586;-9.633471;,
  -16.995411;30.770563;-13.819483;,
  -5.980779;16.887854;18.220826;,
  -16.946192;4.754004;-17.908813;,
  -6.881822;-1.024420;12.490137;,
  -9.210402;-5.323700;2.458081;,
  -14.458613;-2.196112;-12.586597;,
  -12.040728;56.255629;15.573426;,
  -2.342658;66.394406;20.424366;,
  2.260987;59.879514;31.867168;,
  0.777125;50.913795;34.494762;,
  -15.881453;46.644112;14.627270;,
  0.449472;39.267510;36.822717;,
  -17.771019;33.872749;12.811342;,
  -0.250015;20.863312;32.603955;,
  -15.758443;15.166074;11.730182;,
  0.449324;1.284506;24.261338;,
  -6.436155;-1.787426;16.387142;,
  -16.616931;71.873306;10.363403;,
  -16.160381;79.563021;-6.101477;,
  -3.138059;73.928314;-15.351965;,
  4.979292;62.094496;-18.415832;,
  -10.365559;53.159667;18.108326;,
  14.315763;36.109466;-12.684485;,
  -2.280748;31.320237;22.439795;,
  16.322024;4.020708;-9.461096;,
  0.367692;8.790889;22.428150;,
  5.972848;-0.460506;12.724585;,
  13.484214;-2.384006;-3.073096;,
  10.975183;65.540051;-8.701422;,
  15.004990;75.512499;-24.566726;,
  30.051885;67.026778;-29.662045;,
  34.683549;56.592019;-25.319928;,
  11.330342;54.712608;-0.780901;,
  10.782652;39.231075;5.806287;,
  39.158042;42.413498;-21.540651;,
  36.428118;19.601178;-13.946013;,
  12.911916;16.068115;10.551144;,
  29.349574;-4.729680;-6.799830;,
  20.752336;-6.919825;3.545390;,
  10.143070;64.061600;-22.375686;,
  -3.650441;73.193357;-11.287241;,
  -18.617451;66.136141;-7.772352;,
  -23.710083;54.262957;-5.733068;,
  15.870026;45.114320;-26.548088;,
  -19.698613;28.607514;-7.786561;,
  18.555389;23.730277;-27.707946;,
  -10.788010;0.704283;-2.453300;,
  22.759754;4.334315;-23.576264;,
  14.077926;-3.563878;-15.375298;,
  -2.218919;-4.892302;-4.985099;,
  19.797565;86.817446;-20.092658;,
  33.700813;107.508685;-0.440030;,
  17.584957;82.284147;42.776397;,
  13.882464;72.395654;-24.139614;,
  13.300509;73.020858;50.896422;,
  8.735922;45.712877;-32.919776;,
  10.470432;63.891757;60.988307;,
  1.345409;9.675649;42.657779;,
  3.341145;10.376975;-50.460358;,
  3.218230;-3.035546;-23.135526;,
  0.818682;-4.883795;24.916672;,
  -44.945632;75.346637;-0.514111;,
  -51.661792;92.997312;-20.629576;,
  -19.148770;75.124819;-41.740608;,
  -11.388838;67.845472;-45.034022;,
  -39.671677;62.943629;5.247348;,
  -4.069340;60.551629;-50.335670;,
  -34.996918;38.933130;14.077136;,
  4.189332;11.510178;-32.684902;,
  -32.133485;6.560128;29.091283;,
  -19.933976;-4.140311;11.004650;,
  0.111905;-2.710897;-20.207106;,
  -1.408917;77.904634;-43.178611;,
  18.587936;97.142432;-52.492387;,
  53.443200;77.926906;-25.299648;,
  -5.919520;64.805888;-37.726173;,
  59.843053;70.240096;-18.709610;,
  -13.946077;40.014339;-33.214256;,
  68.335507;62.684730;-12.961321;,
  51.929936;12.171102;-5.122648;,
  -29.414733;6.687920;-29.988093;,
  -4.943809;-3.941189;-22.114067;,
  36.743779;-2.372818;-7.928495;,
  -13.055918;94.046022;29.093741;,
  -25.067032;117.780301;11.649973;,
  -4.833333;92.350733;-26.308163;,
  -7.519307;78.015206;32.423299;,
  0.230274;82.611789;-33.566064;,
  -3.169124;48.301414;39.214022;,
  4.034530;73.126067;-42.680640;,
  11.500902;12.728840;-28.567638;,
  0.612604;8.646516;53.289267;,
  3.380445;-3.183496;28.577888;,
  10.366122;-4.154484;-13.658779;,
  18.760803;72.285114;-22.524552;,
  35.276166;93.927757;-11.493546;,
  25.216142;81.007827;32.240640;,
  11.867609;58.671296;-22.444605;,
  21.859966;74.490464;41.492342;,
  3.962391;32.487546;-24.107368;,
  20.050869;68.313120;52.221734;,
  5.075576;14.843114;48.262291;,
  -6.097280;-3.562055;-31.525379;,
  -3.515770;-10.624502;-5.597183;,
  0.938221;-0.982945;36.068842;,
  -35.081258;50.689491;-0.413454;,
  -26.620171;44.547258;-1.275925;,
  -31.316442;38.058205;29.167341;,
  -40.366714;43.462045;29.939866;,
  -51.719056;58.007373;-17.350819;,
  -39.043642;54.067469;-38.565392;,
  -47.065750;54.762970;2.518829;,
  -54.381990;49.596995;27.227126;,
  -68.335507;57.635558;13.632013;,
  2.510129;48.489318;-32.578125;,
  5.040867;42.496362;-24.931170;,
  -21.986117;37.321021;-29.599427;,
  -22.563723;42.601862;-38.045075;,
  18.214093;58.193901;-44.467866;,
  34.483325;51.470346;-34.484835;,
  -0.145424;54.574605;-41.840186;,
  -19.928582;49.536781;-49.586701;,
  -8.085162;62.762835;-59.029235;,
  5.040867;42.496362;-24.931170;,
  2.510129;48.489318;-32.578125;,
  34.483325;51.470346;-34.484835;,
  38.906736;45.300861;-29.403818;,
  35.955837;36.425354;-24.406418;,
  5.703538;35.614883;-20.101181;,
  -21.986117;37.321021;-29.599427;,
  34.723283;26.318874;-20.845504;,
  -22.773635;31.684077;-22.467146;,
  3.358512;23.813448;-14.773338;,
  32.830858;12.467897;-17.052018;,
  -26.263435;23.072574;-18.172312;,
  -1.177678;-1.598497;-9.678347;,
  23.430760;3.120959;-12.077658;,
  -27.826336;-0.057648;-13.585312;,
  36.038349;47.798646;-6.379696;,
  29.281955;41.892579;-2.028737;,
  26.590168;37.328355;-29.877517;,
  34.592662;42.456512;-32.531779;,
  51.635994;56.138074;6.126678;,
  46.198822;49.913270;24.577683;,
  44.881094;52.902333;-11.059634;,
  46.407958;49.094288;-32.802128;,
  64.710675;54.570950;-24.548866;,
  11.441249;46.659194;36.841331;,
  7.010864;41.052918;29.820816;,
  34.269997;35.830326;26.945002;,
  37.012237;40.670547;35.212877;,
  -0.637315;54.904320;52.924902;,
  -18.937352;49.315635;47.246765;,
  16.111438;51.644797;45.651674;,
  37.450042;46.979949;47.397930;,
  28.841712;56.758470;62.247296;,
  7.010864;41.052918;29.820816;,
  11.441249;46.659194;36.841331;,
  -18.937352;49.315635;47.246765;,
  -24.544224;43.387046;43.190048;,
  33.178147;30.575939;19.566339;,
  34.269997;35.830326;26.945002;,
  5.095679;34.426400;24.979936;,
  -23.024949;34.802957;37.133715;,
  -22.808214;24.903251;32.851293;,
  5.926031;22.933282;18.612728;,
  35.398499;22.222837;14.059565;,
  -22.038387;11.280785;27.976986;,
  8.840835;-2.148622;11.188726;,
  35.585882;-0.627392;8.025978;,
  -14.286954;2.060431;20.216214;,
  -26.620171;44.547258;-1.275925;,
  -35.081258;50.689491;-0.413454;,
  -39.043642;54.067469;-38.565392;,
  -32.304211;48.519386;-42.765270;,
  -26.447792;39.007443;-37.676666;,
  -21.255856;37.293949;-1.057397;,
  -22.014389;28.179699;-34.266000;,
  -23.640835;32.196419;29.871850;,
  -31.316442;38.058205;29.167341;,
  -15.311184;24.730448;1.169403;,
  -17.398075;13.354942;-31.279683;,
  -18.873832;22.989221;33.435882;,
  -9.233722;-2.487870;5.400033;,
  -11.894273;2.927859;-21.300707;,
  -13.395319;-1.712868;34.489501;,
  29.281955;41.892579;-2.028737;,
  36.038349;47.798646;-6.379696;,
  46.198822;49.913270;24.577683;,
  42.364413;43.731670;30.118118;,
  36.633059;35.034698;28.343402;,
  24.694747;35.091802;-0.259869;,
  32.679693;25.034856;27.859309;,
  19.472576;31.853965;-28.911190;,
  26.590168;37.328355;-29.877517;,
  18.733179;23.461178;-1.411137;,
  28.240941;11.314068;26.714506;,
  14.275490;23.421093;-31.392090;,
  12.084877;-1.720779;-5.040005;,
  20.850491;2.202355;18.589403;,
  8.936238;0.432800;-32.188752;,
  12.137146;76.303226;-2.848276;,
  9.075641;84.685082;1.792398;,
  5.375665;81.186714;-13.413122;,
  3.676575;69.608045;-21.127563;,
  18.122387;70.870259;11.328929;,
  13.803387;59.483174;-7.437935;,
  5.078760;40.504714;-23.905850;,
  21.659931;48.547920;11.318781;,
  15.936109;31.818643;-8.745346;,
  1.203278;7.660034;-22.016246;,
  22.158819;24.381214;8.763296;,
  11.428967;4.741514;-9.600044;,
  3.490192;-1.258144;-15.265590;,
  18.819744;1.848004;8.213699;,
  9.741907;-3.180680;-9.503586;,
  12.054144;-4.521496;-0.719099;,
  -10.585890;-2.874227;10.586638;,
  -14.825486;-3.204899;7.209268;,
  -16.009819;0.709897;7.287221;,
  -15.805702;-2.957923;2.405342;,
  -19.870608;1.145498;-2.222630;,
  -9.551846;0.865039;14.313331;,
  -23.223198;12.716510;-1.371974;,
  -20.794930;14.617341;8.032442;,
  -14.871026;17.259998;16.773098;,
  -25.692133;25.208750;-1.949124;,
  -21.725478;28.718115;9.050946;,
  -15.347653;32.310486;17.268250;,
  -23.666019;36.608890;-1.266001;,
  -16.265819;39.099434;13.207090;,
  -20.442158;37.814323;6.973677;,
  -17.845085;42.551350;4.694389;,
  17.662570;-3.000596;7.156130;,
  6.523414;-2.652431;11.460867;,
  7.255347;5.332160;12.952572;,
  -4.018332;-2.303297;8.605484;,
  -15.887237;6.528722;10.423595;,
  28.657120;4.182724;7.968054;,
  -14.728638;30.121974;13.285278;,
  8.904258;33.189654;16.271256;,
  34.013520;36.646656;11.945465;,
  -11.683552;54.037587;9.406802;,
  15.033680;59.877843;11.021036;,
  38.432950;65.147494;6.567871;,
  -4.290690;74.961658;3.572984;,
  31.976918;78.064608;2.977853;,
  15.354181;76.598618;4.912129;,
  14.976520;84.742522;-2.446427;;
  326;
  3;0,1,2;,
  3;0,2,3;,
  3;3,4,0;,
  3;4,3,5;,
  3;5,6,4;,
  3;6,5,7;,
  3;7,8,6;,
  3;8,7,9;,
  3;9,10,8;,
  3;11,12,13;,
  3;11,13,14;,
  3;14,15,11;,
  3;15,14,16;,
  3;16,17,15;,
  3;17,16,18;,
  3;18,19,17;,
  3;18,20,19;,
  3;20,18,21;,
  3;22,23,24;,
  3;22,24,25;,
  3;25,26,22;,
  3;26,25,27;,
  3;27,28,26;,
  3;28,27,29;,
  3;29,30,28;,
  3;30,29,31;,
  3;31,32,30;,
  3;33,34,35;,
  3;36,33,35;,
  3;36,35,37;,
  3;36,37,38;,
  3;38,39,36;,
  3;39,38,40;,
  3;40,41,39;,
  3;42,41,40;,
  3;40,43,42;,
  3;44,45,46;,
  3;44,46,47;,
  3;47,48,44;,
  3;48,47,49;,
  3;49,50,48;,
  3;50,49,51;,
  3;51,52,50;,
  3;52,51,53;,
  3;53,54,52;,
  3;55,56,57;,
  3;55,57,58;,
  3;58,59,55;,
  3;59,58,60;,
  3;60,61,59;,
  3;61,60,62;,
  3;62,63,61;,
  3;62,64,63;,
  3;62,65,64;,
  3;66,67,68;,
  3;66,68,69;,
  3;69,70,66;,
  3;70,69,71;,
  3;71,72,70;,
  3;72,71,73;,
  3;73,74,72;,
  3;74,73,75;,
  3;75,76,74;,
  3;77,78,79;,
  3;80,77,79;,
  3;79,81,80;,
  3;82,80,81;,
  3;81,83,82;,
  3;82,83,84;,
  3;84,85,82;,
  3;86,85,84;,
  3;84,87,86;,
  3;88,89,90;,
  3;88,90,91;,
  3;91,92,88;,
  3;92,91,93;,
  3;93,94,92;,
  3;94,93,95;,
  3;95,96,94;,
  3;95,97,96;,
  3;95,98,97;,
  3;99,100,101;,
  3;102,99,101;,
  3;102,101,103;,
  3;102,103,104;,
  3;104,105,102;,
  3;105,104,106;,
  3;106,107,105;,
  3;107,106,108;,
  3;108,109,107;,
  3;110,111,112;,
  3;112,113,110;,
  3;112,114,113;,
  3;113,114,115;,
  3;115,116,113;,
  3;116,115,117;,
  3;117,118,116;,
  3;117,119,118;,
  3;117,120,119;,
  3;121,122,123;,
  3;121,123,124;,
  3;124,125,121;,
  3;125,124,126;,
  3;126,127,125;,
  3;127,126,128;,
  3;128,129,127;,
  3;129,128,130;,
  3;130,131,129;,
  3;132,133,134;,
  3;132,134,135;,
  3;135,136,132;,
  3;136,135,137;,
  3;137,138,136;,
  3;138,137,139;,
  3;139,140,138;,
  3;139,141,140;,
  3;139,142,141;,
  3;143,144,145;,
  3;143,145,146;,
  3;146,147,143;,
  3;148,147,146;,
  3;146,149,148;,
  3;148,149,150;,
  3;150,151,148;,
  3;151,150,152;,
  3;152,153,151;,
  3;154,155,156;,
  3;154,156,157;,
  3;157,158,154;,
  3;158,157,159;,
  3;159,160,158;,
  3;160,159,161;,
  3;161,162,160;,
  3;161,163,162;,
  3;161,164,163;,
  3;165,166,167;,
  3;168,165,167;,
  3;168,167,169;,
  3;170,168,169;,
  3;170,169,171;,
  3;170,171,172;,
  3;172,173,170;,
  3;172,174,173;,
  3;172,175,174;,
  3;176,177,178;,
  3;176,178,179;,
  3;179,180,176;,
  3;180,179,181;,
  3;181,182,180;,
  3;182,181,183;,
  3;183,184,182;,
  3;183,185,184;,
  3;183,186,185;,
  3;187,188,189;,
  3;189,190,187;,
  3;189,191,190;,
  3;192,190,191;,
  3;191,193,192;,
  3;192,193,194;,
  3;194,195,192;,
  3;194,196,195;,
  3;194,197,196;,
  3;198,199,200;,
  3;200,201,198;,
  3;201,200,202;,
  3;202,203,201;,
  3;203,202,204;,
  3;203,204,205;,
  3;205,206,203;,
  3;205,207,206;,
  3;205,208,207;,
  3;209,210,211;,
  3;212,209,211;,
  3;212,211,213;,
  3;214,212,213;,
  3;214,213,215;,
  3;214,215,216;,
  3;216,217,214;,
  3;216,218,217;,
  3;216,219,218;,
  3;220,221,222;,
  3;222,223,220;,
  3;220,224,225;,
  3;223,226,220;,
  3;220,226,224;,
  3;226,223,227;,
  3;228,224,226;,
  3;227,228,226;,
  3;229,230,231;,
  3;231,232,229;,
  3;229,233,234;,
  3;235,229,232;,
  3;233,229,235;,
  3;235,232,236;,
  3;237,233,235;,
  3;236,237,235;,
  3;238,239,240;,
  3;240,241,238;,
  3;238,241,242;,
  3;242,243,238;,
  3;244,238,243;,
  3;242,245,243;,
  3;243,246,244;,
  3;247,243,245;,
  3;246,243,247;,
  3;245,248,247;,
  3;247,249,246;,
  3;248,250,247;,
  3;249,247,250;,
  3;251,250,248;,
  3;250,252,249;,
  3;253,254,255;,
  3;255,256,253;,
  3;253,257,258;,
  3;256,259,253;,
  3;253,259,257;,
  3;256,260,259;,
  3;261,257,259;,
  3;260,261,259;,
  3;262,263,264;,
  3;264,265,262;,
  3;262,266,267;,
  3;265,268,262;,
  3;262,268,266;,
  3;265,269,268;,
  3;270,266,268;,
  3;269,270,268;,
  3;271,272,273;,
  3;273,274,271;,
  3;275,276,271;,
  3;277,271,274;,
  3;271,277,275;,
  3;274,278,277;,
  3;277,278,279;,
  3;275,277,280;,
  3;279,280,277;,
  3;280,281,275;,
  3;279,282,280;,
  3;281,280,283;,
  3;282,283,280;,
  3;283,284,281;,
  3;285,283,282;,
  3;286,287,288;,
  3;288,289,286;,
  3;286,289,290;,
  3;290,291,286;,
  3;290,292,291;,
  3;293,294,286;,
  3;286,291,293;,
  3;291,292,295;,
  3;293,291,295;,
  3;292,296,295;,
  3;295,297,293;,
  3;296,298,295;,
  3;297,295,298;,
  3;299,298,296;,
  3;298,300,297;,
  3;301,302,303;,
  3;303,304,301;,
  3;301,304,305;,
  3;305,306,301;,
  3;306,305,307;,
  3;301,308,309;,
  3;308,301,306;,
  3;310,306,307;,
  3;308,306,310;,
  3;307,311,310;,
  3;310,312,308;,
  3;311,313,310;,
  3;312,310,313;,
  3;314,313,311;,
  3;313,315,312;,
  3;316,317,318;,
  3;316,318,319;,
  3;320,317,316;,
  3;319,321,316;,
  3;320,316,321;,
  3;321,319,322;,
  3;321,323,320;,
  3;322,324,321;,
  3;321,324,323;,
  3;324,322,325;,
  3;324,326,323;,
  3;325,327,324;,
  3;326,324,327;,
  3;327,325,328;,
  3;327,329,326;,
  3;328,330,327;,
  3;331,329,327;,
  3;327,330,331;,
  3;332,333,334;,
  3;334,333,335;,
  3;335,336,334;,
  3;334,337,332;,
  3;338,334,336;,
  3;337,334,339;,
  3;334,338,339;,
  3;339,340,337;,
  3;341,339,338;,
  3;340,339,342;,
  3;339,341,342;,
  3;342,343,340;,
  3;344,342,341;,
  3;342,345,343;,
  3;344,346,342;,
  3;342,346,345;,
  3;344,347,346;,
  3;346,347,345;,
  3;348,349,350;,
  3;350,349,351;,
  3;351,352,350;,
  3;350,353,348;,
  3;350,352,354;,
  3;353,350,355;,
  3;354,355,350;,
  3;355,356,353;,
  3;355,354,357;,
  3;356,355,358;,
  3;357,358,355;,
  3;358,359,356;,
  3;358,357,360;,
  3;361,359,358;,
  3;360,362,358;,
  3;358,362,361;,
  3;360,363,362;,
  3;362,363,361;;

  MeshNormals {
   364;
   -0.687103;-0.427332;0.587603;,
   -0.640263;-0.550344;0.535896;,
   -0.668847;-0.464470;0.580440;,
   -0.706068;-0.338372;0.622071;,
   -0.744066;-0.236826;0.624723;,
   -0.752067;-0.115324;0.648919;,
   -0.757917;-0.052648;0.650223;,
   -0.739415;0.065256;0.670080;,
   -0.724190;0.045437;0.688102;,
   -0.698083;0.116141;0.706535;,
   -0.678345;0.072018;0.731205;,
   -0.833828;-0.125846;-0.537488;,
   -0.714313;-0.425254;-0.555802;,
   -0.829887;-0.146982;-0.538223;,
   -0.859628;-0.014453;-0.510716;,
   -0.860407;0.030228;-0.508710;,
   -0.870175;0.171004;-0.462118;,
   -0.866079;0.227348;-0.445220;,
   -0.850545;0.352700;-0.390099;,
   -0.857664;0.331812;-0.392827;,
   -0.844972;0.377469;-0.378867;,
   -0.835654;0.420086;-0.353852;,
   0.747109;-0.285425;-0.600300;,
   0.713212;-0.417559;-0.563004;,
   0.733020;-0.324896;-0.597599;,
   0.756283;-0.198795;-0.623311;,
   0.789022;-0.074013;-0.609891;,
   0.777518;0.087004;-0.622813;,
   0.771079;0.195820;-0.605881;,
   0.730183;0.314614;-0.606507;,
   0.718937;0.289296;-0.632011;,
   0.694352;0.286923;-0.659963;,
   0.667837;0.217747;-0.711745;,
   -0.313280;-0.555619;-0.770158;,
   -0.153958;-0.761974;-0.629042;,
   -0.276686;-0.585281;-0.762162;,
   -0.408672;-0.367584;-0.835386;,
   -0.371640;-0.436087;-0.819580;,
   -0.475254;-0.224717;-0.850668;,
   -0.489039;-0.194150;-0.850380;,
   -0.519993;-0.138677;-0.842838;,
   -0.524092;-0.168220;-0.834883;,
   -0.522218;-0.183591;-0.832816;,
   -0.536039;-0.151016;-0.830576;,
   0.827365;-0.152688;0.540512;,
   0.801009;-0.274541;0.531988;,
   0.826240;-0.186288;0.531624;,
   0.841613;-0.065748;0.536065;,
   0.832818;0.007932;0.553490;,
   0.831601;0.150494;0.534595;,
   0.817986;0.214955;0.533566;,
   0.804252;0.324819;0.497666;,
   0.815618;0.316317;0.484470;,
   0.834854;0.318070;0.449277;,
   0.868819;0.267864;0.416416;,
   0.872182;-0.482219;-0.082240;,
   0.691914;-0.720845;-0.040470;,
   0.872652;-0.482060;-0.078084;,
   0.917636;-0.384914;-0.098923;,
   0.933358;-0.347079;-0.091538;,
   0.976106;-0.186135;-0.112116;,
   0.987547;-0.112124;-0.110363;,
   0.990503;0.053010;-0.126860;,
   0.990716;0.030481;-0.132485;,
   0.987898;0.087785;-0.127870;,
   0.981468;0.135782;-0.135221;,
   -0.047822;-0.191542;-0.980319;,
   -0.064971;-0.326824;-0.942849;,
   -0.061836;-0.230069;-0.971208;,
   -0.043566;-0.102551;-0.993773;,
   -0.007150;-0.017557;-0.999820;,
   0.002531;0.107888;-0.994160;,
   0.024872;0.178340;-0.983655;,
   0.026121;0.290759;-0.956440;,
   0.013259;0.291318;-0.956534;,
   -0.006853;0.330625;-0.943737;,
   -0.045237;0.296134;-0.954075;,
   -0.340896;-0.660613;-0.668865;,
   -0.279902;-0.769194;-0.574452;,
   -0.313770;-0.694726;-0.647228;,
   -0.387963;-0.510008;-0.767709;,
   -0.335002;-0.594322;-0.731133;,
   -0.417310;-0.374440;-0.828038;,
   -0.367772;-0.418533;-0.830406;,
   -0.468689;-0.214388;-0.856953;,
   -0.476297;-0.251729;-0.842481;,
   -0.542462;-0.098595;-0.834274;,
   -0.603629;-0.042141;-0.796151;,
   -0.108222;-0.192399;0.975331;,
   -0.152154;-0.471458;0.868664;,
   -0.112351;-0.191792;0.974984;,
   -0.087476;-0.090434;0.992053;,
   -0.084922;-0.077036;0.993405;,
   -0.042039;0.111934;0.992826;,
   -0.019481;0.158679;0.987138;,
   0.022612;0.319148;0.947435;,
   0.038837;0.292486;0.955481;,
   0.038501;0.313685;0.948746;,
   0.031798;0.290667;0.956296;,
   0.475367;-0.518247;0.710948;,
   0.411281;-0.644430;0.644638;,
   0.448406;-0.556973;0.699080;,
   0.495733;-0.373312;0.784147;,
   0.482718;-0.457243;0.746935;,
   0.515974;-0.274145;0.811551;,
   0.517661;-0.220429;0.826704;,
   0.546193;-0.094531;0.832308;,
   0.564049;-0.089232;0.820906;,
   0.591955;0.014719;0.805836;,
   0.618955;-0.026527;0.784978;,
   -0.849020;-0.522807;0.076404;,
   -0.680906;-0.730354;-0.054322;,
   -0.847086;-0.525329;0.080460;,
   -0.903412;-0.404044;0.143512;,
   -0.892766;-0.428149;0.140206;,
   -0.941690;-0.249940;0.225279;,
   -0.950679;-0.191907;0.243684;,
   -0.950053;-0.071258;0.303844;,
   -0.950803;-0.075789;0.300382;,
   -0.946641;-0.146775;0.286929;,
   -0.945675;-0.102108;0.308664;,
   0.756469;-0.303126;-0.579542;,
   0.722745;-0.433987;-0.537861;,
   0.742544;-0.342548;-0.575577;,
   0.765512;-0.217349;-0.605600;,
   0.788447;-0.127651;-0.601711;,
   0.785576;-0.018348;-0.618493;,
   0.790535;0.055579;-0.609890;,
   0.764934;0.176428;-0.619475;,
   0.753536;0.187362;-0.630143;,
   0.717318;0.250672;-0.650092;,
   0.699179;0.195561;-0.687681;,
   -0.743261;-0.516185;-0.425577;,
   -0.573814;-0.735830;-0.359571;,
   -0.746667;-0.505996;-0.431806;,
   -0.798931;-0.410359;-0.439675;,
   -0.801161;-0.409000;-0.436876;,
   -0.858231;-0.262421;-0.441106;,
   -0.865819;-0.238082;-0.440085;,
   -0.897575;-0.081500;-0.433262;,
   -0.895725;-0.100503;-0.433101;,
   -0.897164;-0.079283;-0.434523;,
   -0.904010;-0.025111;-0.426774;,
   -0.601152;-0.526103;-0.601525;,
   -0.544607;-0.640785;-0.541108;,
   -0.592370;-0.560360;-0.578874;,
   -0.628378;-0.433784;-0.645735;,
   -0.667236;-0.342848;-0.661250;,
   -0.679935;-0.234000;-0.694933;,
   -0.647832;-0.287110;-0.705607;,
   -0.698262;-0.111185;-0.707155;,
   -0.715702;-0.116862;-0.688559;,
   -0.738822;-0.022018;-0.673540;,
   -0.761001;-0.062768;-0.645707;,
   0.445896;-0.123760;0.886488;,
   0.388349;-0.413432;0.823565;,
   0.442164;-0.123601;0.888377;,
   0.458364;-0.023501;0.888454;,
   0.460630;-0.015410;0.887458;,
   0.472564;0.129715;0.871698;,
   0.478634;0.173214;0.860759;,
   0.476553;0.316421;0.820229;,
   0.486868;0.291606;0.823363;,
   0.479398;0.325541;0.814985;,
   0.477563;0.370901;0.796471;,
   0.896065;-0.443922;-0.000474;,
   0.834506;-0.550902;-0.010354;,
   0.899886;-0.436080;0.006212;,
   0.962174;-0.272325;0.007819;,
   0.954273;-0.297922;0.024622;,
   0.984313;-0.175671;0.016395;,
   0.976468;-0.214381;0.023464;,
   0.990142;-0.138274;0.022352;,
   0.994240;-0.105191;0.020517;,
   0.999423;0.024277;0.023759;,
   0.994673;-0.092189;0.046124;,
   -0.686951;-0.585049;-0.431063;,
   -0.624302;-0.678587;-0.386997;,
   -0.690749;-0.582016;-0.429095;,
   -0.753130;-0.464283;-0.466086;,
   -0.769363;-0.419573;-0.481705;,
   -0.795736;-0.357436;-0.488921;,
   -0.806740;-0.317646;-0.498268;,
   -0.816378;-0.277991;-0.506209;,
   -0.827078;-0.244914;-0.505925;,
   -0.849520;-0.122819;-0.513061;,
   -0.813034;-0.234476;-0.532913;,
   0.266435;-0.511752;-0.816776;,
   0.244266;-0.616346;-0.748633;,
   0.273751;-0.503711;-0.819351;,
   0.285147;-0.341042;-0.895758;,
   0.300764;-0.365884;-0.880721;,
   0.295176;-0.243747;-0.923828;,
   0.301949;-0.282505;-0.910504;,
   0.300864;-0.205665;-0.931226;,
   0.298555;-0.171885;-0.938787;,
   0.296792;-0.041536;-0.954038;,
   0.323424;-0.157705;-0.933020;,
   -0.902308;-0.413686;-0.121259;,
   -0.851613;-0.512345;-0.110716;,
   -0.906035;-0.403190;-0.128602;,
   -0.960046;-0.248920;-0.127868;,
   -0.951144;-0.271986;-0.146111;,
   -0.978403;-0.157331;-0.134071;,
   -0.970263;-0.194365;-0.144264;,
   -0.983206;-0.117482;-0.139659;,
   -0.986693;-0.089554;-0.135712;,
   -0.990713;0.026986;-0.133267;,
   -0.984021;-0.076035;-0.161003;,
   0.859988;-0.509917;-0.020152;,
   0.794192;-0.607659;0.003171;,
   0.864422;-0.502520;-0.015773;,
   0.933171;-0.354365;-0.060143;,
   0.925754;-0.376350;-0.036618;,
   0.960545;-0.267458;-0.076282;,
   0.951441;-0.302181;-0.058712;,
   0.968286;-0.237446;-0.077726;,
   0.975397;-0.201165;-0.090183;,
   0.989233;-0.090517;-0.114996;,
   0.975586;-0.212597;-0.055092;,
   -0.517686;-0.849301;-0.103385;,
   -0.667957;-0.730469;-0.142299;,
   -0.548644;-0.792675;-0.265812;,
   -0.429912;-0.856948;-0.284283;,
   -0.318513;-0.945551;-0.066954;,
   -0.500384;-0.865617;-0.017995;,
   -0.295245;-0.938444;-0.179314;,
   -0.309066;-0.908440;-0.281451;,
   -0.242983;-0.944543;-0.220901;,
   0.120484;-0.779983;-0.614093;,
   0.153868;-0.682358;-0.714641;,
   0.233107;-0.767217;-0.597528;,
   0.327644;-0.805413;-0.493922;,
   0.062940;-0.824082;-0.562962;,
   0.002963;-0.740905;-0.671603;,
   0.217039;-0.820085;-0.529485;,
   0.384930;-0.797660;-0.464293;,
   0.295586;-0.802240;-0.518691;,
   0.153868;-0.682358;-0.714641;,
   0.120484;-0.779983;-0.614093;,
   0.002963;-0.740905;-0.671603;,
   -0.061389;-0.567818;-0.820862;,
   -0.099593;-0.416576;-0.903629;,
   0.018742;-0.499880;-0.865892;,
   0.233107;-0.767217;-0.597528;,
   -0.145438;-0.293290;-0.944896;,
   0.137300;-0.614601;-0.776797;,
   -0.011315;-0.307681;-0.951423;,
   -0.132015;-0.258169;-0.957038;,
   0.119894;-0.329122;-0.936645;,
   0.023368;-0.219097;-0.975423;,
   0.004981;-0.473696;-0.880674;,
   0.130682;-0.201344;-0.970764;,
   0.591551;-0.804691;-0.050397;,
   0.708241;-0.703214;-0.062332;,
   0.602708;-0.792430;0.093802;,
   0.535515;-0.830610;0.152681;,
   0.446455;-0.893670;-0.045084;,
   0.621122;-0.763085;-0.178627;,
   0.374202;-0.921462;0.104311;,
   0.368641;-0.910891;0.185424;,
   0.190417;-0.968559;0.160107;,
   0.033648;-0.821644;0.569007;,
   0.038668;-0.730256;0.682078;,
   -0.117005;-0.809487;0.575362;,
   -0.182573;-0.840003;0.510943;,
   0.054591;-0.884716;0.462922;,
   0.161960;-0.788148;0.593795;,
   -0.093476;-0.889757;0.446761;,
   -0.225746;-0.864597;0.448899;,
   -0.161072;-0.901637;0.401381;,
   0.038668;-0.730256;0.682078;,
   0.033648;-0.821644;0.569007;,
   0.161960;-0.788148;0.593795;,
   0.281155;-0.614913;0.736772;,
   0.041034;-0.633840;0.772375;,
   -0.117005;-0.809487;0.575362;,
   0.221813;-0.526441;0.820767;,
   0.350146;-0.445539;0.823949;,
   0.386187;-0.340178;0.857403;,
   0.258591;-0.356148;0.897936;,
   0.128345;-0.377685;0.916996;,
   0.377625;-0.304014;0.874629;,
   0.232783;-0.268600;0.934701;,
   0.127776;-0.252227;0.959195;,
   0.232836;-0.504214;0.831598;,
   -0.667957;-0.730469;-0.142299;,
   -0.517686;-0.849301;-0.103385;,
   -0.500384;-0.865617;-0.017995;,
   -0.745981;-0.664851;0.038548;,
   -0.888679;-0.449838;0.088857;,
   -0.860404;-0.509399;-0.014779;,
   -0.937272;-0.322380;0.132635;,
   -0.775549;-0.606043;-0.176736;,
   -0.548644;-0.792675;-0.265812;,
   -0.944618;-0.328163;0.002338;,
   -0.952055;-0.280252;0.122683;,
   -0.930128;-0.345146;-0.125441;,
   -0.970560;-0.239219;-0.028076;,
   -0.881109;-0.472844;-0.008111;,
   -0.966474;-0.219995;-0.132404;,
   0.708241;-0.703214;-0.062332;,
   0.591551;-0.804691;-0.050397;,
   0.621122;-0.763085;-0.178627;,
   0.768274;-0.575772;-0.279717;,
   0.840990;-0.426305;-0.333166;,
   0.833794;-0.499248;-0.235666;,
   0.871809;-0.303961;-0.384132;,
   0.792735;-0.607067;-0.055149;,
   0.602708;-0.792430;0.093802;,
   0.910544;-0.321450;-0.259961;,
   0.887410;-0.269265;-0.374166;,
   0.928969;-0.345232;-0.133537;,
   0.943972;-0.234506;-0.232216;,
   0.846741;-0.477362;-0.234853;,
   0.966839;-0.220067;-0.129588;,
   -0.884197;-0.323574;0.336891;,
   -0.853460;-0.453705;0.256433;,
   -0.862973;-0.267351;0.428720;,
   -0.849597;-0.156805;0.503584;,
   -0.929619;-0.224472;0.292268;,
   -0.891904;-0.136552;0.431116;,
   -0.815171;-0.009843;0.579137;,
   -0.941355;-0.099650;0.322367;,
   -0.877885;0.027944;0.478055;,
   -0.744531;0.175682;0.644057;,
   -0.930868;0.058440;0.360651;,
   -0.825527;0.185294;0.533078;,
   -0.682770;0.257915;0.683597;,
   -0.894881;0.192672;0.402575;,
   -0.833336;0.183809;0.521311;,
   -0.879250;0.297416;0.372106;,
   0.649680;0.373798;-0.661960;,
   0.808033;0.255027;-0.531078;,
   0.806987;0.322638;-0.494648;,
   0.867110;0.414978;-0.275523;,
   0.878128;0.335436;-0.341136;,
   0.697406;0.347777;-0.626639;,
   0.920824;0.248262;-0.300747;,
   0.861733;0.221468;-0.456475;,
   0.776747;0.185850;-0.601768;,
   0.948042;0.013125;-0.317873;,
   0.881830;-0.059641;-0.467781;,
   0.805805;-0.092761;-0.584870;,
   0.915745;-0.272919;-0.294832;,
   0.809719;-0.319674;-0.492102;,
   0.840644;-0.394224;-0.371356;,
   0.769028;-0.565243;-0.298492;,
   -0.228991;0.346727;-0.909584;,
   -0.035209;0.186649;-0.981795;,
   -0.051433;0.193998;-0.979653;,
   0.155819;0.304857;-0.939565;,
   0.116163;0.183689;-0.976097;,
   -0.201277;0.214351;-0.955794;,
   0.127910;-0.012534;-0.991707;,
   -0.022041;-0.026589;-0.999403;,
   -0.166088;-0.033729;-0.985534;,
   0.124605;-0.236707;-0.963558;,
   -0.017357;-0.254293;-0.966971;,
   -0.127530;-0.245742;-0.960910;,
   0.111948;-0.397348;-0.910814;,
   -0.081128;-0.415839;-0.905813;,
   0.020999;-0.510468;-0.859641;,
   0.039719;-0.668882;-0.742307;;
   326;
   3;0,1,2;,
   3;0,2,3;,
   3;3,4,0;,
   3;4,3,5;,
   3;5,6,4;,
   3;6,5,7;,
   3;7,8,6;,
   3;8,7,9;,
   3;9,10,8;,
   3;11,12,13;,
   3;11,13,14;,
   3;14,15,11;,
   3;15,14,16;,
   3;16,17,15;,
   3;17,16,18;,
   3;18,19,17;,
   3;18,20,19;,
   3;20,18,21;,
   3;22,23,24;,
   3;22,24,25;,
   3;25,26,22;,
   3;26,25,27;,
   3;27,28,26;,
   3;28,27,29;,
   3;29,30,28;,
   3;30,29,31;,
   3;31,32,30;,
   3;33,34,35;,
   3;36,33,35;,
   3;36,35,37;,
   3;36,37,38;,
   3;38,39,36;,
   3;39,38,40;,
   3;40,41,39;,
   3;42,41,40;,
   3;40,43,42;,
   3;44,45,46;,
   3;44,46,47;,
   3;47,48,44;,
   3;48,47,49;,
   3;49,50,48;,
   3;50,49,51;,
   3;51,52,50;,
   3;52,51,53;,
   3;53,54,52;,
   3;55,56,57;,
   3;55,57,58;,
   3;58,59,55;,
   3;59,58,60;,
   3;60,61,59;,
   3;61,60,62;,
   3;62,63,61;,
   3;62,64,63;,
   3;62,65,64;,
   3;66,67,68;,
   3;66,68,69;,
   3;69,70,66;,
   3;70,69,71;,
   3;71,72,70;,
   3;72,71,73;,
   3;73,74,72;,
   3;74,73,75;,
   3;75,76,74;,
   3;77,78,79;,
   3;80,77,79;,
   3;79,81,80;,
   3;82,80,81;,
   3;81,83,82;,
   3;82,83,84;,
   3;84,85,82;,
   3;86,85,84;,
   3;84,87,86;,
   3;88,89,90;,
   3;88,90,91;,
   3;91,92,88;,
   3;92,91,93;,
   3;93,94,92;,
   3;94,93,95;,
   3;95,96,94;,
   3;95,97,96;,
   3;95,98,97;,
   3;99,100,101;,
   3;102,99,101;,
   3;102,101,103;,
   3;102,103,104;,
   3;104,105,102;,
   3;105,104,106;,
   3;106,107,105;,
   3;107,106,108;,
   3;108,109,107;,
   3;110,111,112;,
   3;112,113,110;,
   3;112,114,113;,
   3;113,114,115;,
   3;115,116,113;,
   3;116,115,117;,
   3;117,118,116;,
   3;117,119,118;,
   3;117,120,119;,
   3;121,122,123;,
   3;121,123,124;,
   3;124,125,121;,
   3;125,124,126;,
   3;126,127,125;,
   3;127,126,128;,
   3;128,129,127;,
   3;129,128,130;,
   3;130,131,129;,
   3;132,133,134;,
   3;132,134,135;,
   3;135,136,132;,
   3;136,135,137;,
   3;137,138,136;,
   3;138,137,139;,
   3;139,140,138;,
   3;139,141,140;,
   3;139,142,141;,
   3;143,144,145;,
   3;143,145,146;,
   3;146,147,143;,
   3;148,147,146;,
   3;146,149,148;,
   3;148,149,150;,
   3;150,151,148;,
   3;151,150,152;,
   3;152,153,151;,
   3;154,155,156;,
   3;154,156,157;,
   3;157,158,154;,
   3;158,157,159;,
   3;159,160,158;,
   3;160,159,161;,
   3;161,162,160;,
   3;161,163,162;,
   3;161,164,163;,
   3;165,166,167;,
   3;168,165,167;,
   3;168,167,169;,
   3;170,168,169;,
   3;170,169,171;,
   3;170,171,172;,
   3;172,173,170;,
   3;172,174,173;,
   3;172,175,174;,
   3;176,177,178;,
   3;176,178,179;,
   3;179,180,176;,
   3;180,179,181;,
   3;181,182,180;,
   3;182,181,183;,
   3;183,184,182;,
   3;183,185,184;,
   3;183,186,185;,
   3;187,188,189;,
   3;189,190,187;,
   3;189,191,190;,
   3;192,190,191;,
   3;191,193,192;,
   3;192,193,194;,
   3;194,195,192;,
   3;194,196,195;,
   3;194,197,196;,
   3;198,199,200;,
   3;200,201,198;,
   3;201,200,202;,
   3;202,203,201;,
   3;203,202,204;,
   3;203,204,205;,
   3;205,206,203;,
   3;205,207,206;,
   3;205,208,207;,
   3;209,210,211;,
   3;212,209,211;,
   3;212,211,213;,
   3;214,212,213;,
   3;214,213,215;,
   3;214,215,216;,
   3;216,217,214;,
   3;216,218,217;,
   3;216,219,218;,
   3;220,221,222;,
   3;222,223,220;,
   3;220,224,225;,
   3;223,226,220;,
   3;220,226,224;,
   3;226,223,227;,
   3;228,224,226;,
   3;227,228,226;,
   3;229,230,231;,
   3;231,232,229;,
   3;229,233,234;,
   3;235,229,232;,
   3;233,229,235;,
   3;235,232,236;,
   3;237,233,235;,
   3;236,237,235;,
   3;238,239,240;,
   3;240,241,238;,
   3;238,241,242;,
   3;242,243,238;,
   3;244,238,243;,
   3;242,245,243;,
   3;243,246,244;,
   3;247,243,245;,
   3;246,243,247;,
   3;245,248,247;,
   3;247,249,246;,
   3;248,250,247;,
   3;249,247,250;,
   3;251,250,248;,
   3;250,252,249;,
   3;253,254,255;,
   3;255,256,253;,
   3;253,257,258;,
   3;256,259,253;,
   3;253,259,257;,
   3;256,260,259;,
   3;261,257,259;,
   3;260,261,259;,
   3;262,263,264;,
   3;264,265,262;,
   3;262,266,267;,
   3;265,268,262;,
   3;262,268,266;,
   3;265,269,268;,
   3;270,266,268;,
   3;269,270,268;,
   3;271,272,273;,
   3;273,274,271;,
   3;275,276,271;,
   3;277,271,274;,
   3;271,277,275;,
   3;274,278,277;,
   3;277,278,279;,
   3;275,277,280;,
   3;279,280,277;,
   3;280,281,275;,
   3;279,282,280;,
   3;281,280,283;,
   3;282,283,280;,
   3;283,284,281;,
   3;285,283,282;,
   3;286,287,288;,
   3;288,289,286;,
   3;286,289,290;,
   3;290,291,286;,
   3;290,292,291;,
   3;293,294,286;,
   3;286,291,293;,
   3;291,292,295;,
   3;293,291,295;,
   3;292,296,295;,
   3;295,297,293;,
   3;296,298,295;,
   3;297,295,298;,
   3;299,298,296;,
   3;298,300,297;,
   3;301,302,303;,
   3;303,304,301;,
   3;301,304,305;,
   3;305,306,301;,
   3;306,305,307;,
   3;301,308,309;,
   3;308,301,306;,
   3;310,306,307;,
   3;308,306,310;,
   3;307,311,310;,
   3;310,312,308;,
   3;311,313,310;,
   3;312,310,313;,
   3;314,313,311;,
   3;313,315,312;,
   3;316,317,318;,
   3;316,318,319;,
   3;320,317,316;,
   3;319,321,316;,
   3;320,316,321;,
   3;321,319,322;,
   3;321,323,320;,
   3;322,324,321;,
   3;321,324,323;,
   3;324,322,325;,
   3;324,326,323;,
   3;325,327,324;,
   3;326,324,327;,
   3;327,325,328;,
   3;327,329,326;,
   3;328,330,327;,
   3;331,329,327;,
   3;327,330,331;,
   3;332,333,334;,
   3;334,333,335;,
   3;335,336,334;,
   3;334,337,332;,
   3;338,334,336;,
   3;337,334,339;,
   3;334,338,339;,
   3;339,340,337;,
   3;341,339,338;,
   3;340,339,342;,
   3;339,341,342;,
   3;342,343,340;,
   3;344,342,341;,
   3;342,345,343;,
   3;344,346,342;,
   3;342,346,345;,
   3;344,347,346;,
   3;346,347,345;,
   3;348,349,350;,
   3;350,349,351;,
   3;351,352,350;,
   3;350,353,348;,
   3;350,352,354;,
   3;353,350,355;,
   3;354,355,350;,
   3;355,356,353;,
   3;355,354,357;,
   3;356,355,358;,
   3;357,358,355;,
   3;358,359,356;,
   3;358,357,360;,
   3;361,359,358;,
   3;360,362,358;,
   3;358,362,361;,
   3;360,363,362;,
   3;362,363,361;;
  }

  MeshMaterialList {
   1;
   326;
   0,
   0,
   0,
   0,
   0,
   0,
   0,
   0,
   0,
   0,
   0,
   0,
   0,
   0,
   0,
   0,
   0,
   0,
   0,
   0,
   0,
   0,
   0,
   0,
   0,
   0,
   0,
   0,
   0,
   0,
   0,
   0,
   0,
   0,
   0,
   0,
   0,
   0,
   0,
   0,
   0,
   0,
   0,
   0,
   0,
   0,
   0,
   0,
   0,
   0,
   0,
   0,
   0,
   0,
   0,
   0,
   0,
   0,
   0,
   0,
   0,
   0,
   0,
   0,
   0,
   0,
   0,
   0,
   0,
   0,
   0,
   0,
   0,
   0,
   0,
   0,
   0,
   0,
   0,
   0,
   0,
   0,
   0,
   0,
   0,
   0,
   0,
   0,
   0,
   0,
   0,
   0,
   0,
   0,
   0,
   0,
   0,
   0,
   0,
   0,
   0,
   0,
   0,
   0,
   0,
   0,
   0,
   0,
   0,
   0,
   0,
   0,
   0,
   0,
   0,
   0,
   0,
   0,
   0,
   0,
   0,
   0,
   0,
   0,
   0,
   0,
   0,
   0,
   0,
   0,
   0,
   0,
   0,
   0,
   0,
   0,
   0,
   0,
   0,
   0,
   0,
   0,
   0,
   0,
   0,
   0,
   0,
   0,
   0,
   0,
   0,
   0,
   0,
   0,
   0,
   0,
   0,
   0,
   0,
   0,
   0,
   0,
   0,
   0,
   0,
   0,
   0,
   0,
   0,
   0,
   0,
   0,
   0,
   0,
   0,
   0,
   0,
   0,
   0,
   0,
   0,
   0,
   0,
   0,
   0,
   0,
   0,
   0,
   0,
   0,
   0,
   0,
   0,
   0,
   0,
   0,
   0,
   0,
   0,
   0,
   0,
   0,
   0,
   0,
   0,
   0,
   0,
   0,
   0,
   0,
   0,
   0,
   0,
   0,
   0,
   0,
   0,
   0,
   0,
   0,
   0,
   0,
   0,
   0,
   0,
   0,
   0,
   0,
   0,
   0,
   0,
   0,
   0,
   0,
   0,
   0,
   0,
   0,
   0,
   0,
   0,
   0,
   0,
   0,
   0,
   0,
   0,
   0,
   0,
   0,
   0,
   0,
   0,
   0,
   0,
   0,
   0,
   0,
   0,
   0,
   0,
   0,
   0,
   0,
   0,
   0,
   0,
   0,
   0,
   0,
   0,
   0,
   0,
   0,
   0,
   0,
   0,
   0,
   0,
   0,
   0,
   0,
   0,
   0,
   0,
   0,
   0,
   0,
   0,
   0,
   0,
   0,
   0,
   0,
   0,
   0,
   0,
   0,
   0,
   0,
   0,
   0,
   0,
   0,
   0,
   0,
   0,
   0,
   0,
   0,
   0,
   0,
   0,
   0,
   0,
   0,
   0,
   0,
   0,
   0,
   0,
   0,
   0,
   0,
   0,
   0;
   { MI_Plants }
  }

  MeshTextureCoords c1 {
   364;
   0.467041;0.266113;,
   0.425293;0.213501;,
   0.372070;0.246216;,
   0.367432;0.289307;,
   0.477539;0.311523;,
   0.362061;0.339844;,
   0.483643;0.364746;,
   0.377441;0.413818;,
   0.475586;0.436768;,
   0.392578;0.485352;,
   0.431641;0.496094;,
   0.335205;0.275146;,
   0.285400;0.235962;,
   0.233643;0.253906;,
   0.216309;0.289063;,
   0.346924;0.337402;,
   0.216309;0.370361;,
   0.347168;0.405273;,
   0.216309;0.463379;,
   0.348633;0.471924;,
   0.307617;0.494873;,
   0.240356;0.489502;,
   0.467041;0.266113;,
   0.425293;0.213501;,
   0.372070;0.246216;,
   0.367432;0.289307;,
   0.477539;0.311523;,
   0.362061;0.339844;,
   0.483643;0.364746;,
   0.377441;0.413818;,
   0.475586;0.436768;,
   0.392578;0.485352;,
   0.431641;0.496094;,
   0.335205;0.275146;,
   0.285400;0.235962;,
   0.233643;0.253906;,
   0.346924;0.337402;,
   0.216309;0.289063;,
   0.216309;0.370361;,
   0.347168;0.405273;,
   0.216309;0.463379;,
   0.348633;0.471924;,
   0.307617;0.494873;,
   0.240356;0.489502;,
   0.467041;0.266113;,
   0.425293;0.213501;,
   0.372070;0.246216;,
   0.367432;0.289307;,
   0.477539;0.311523;,
   0.362061;0.339844;,
   0.483643;0.364746;,
   0.377441;0.413818;,
   0.475586;0.436768;,
   0.392578;0.485352;,
   0.431641;0.496094;,
   0.335205;0.275146;,
   0.285400;0.235962;,
   0.233643;0.253906;,
   0.216309;0.289063;,
   0.346924;0.337402;,
   0.216309;0.370361;,
   0.347168;0.405273;,
   0.216309;0.463379;,
   0.348633;0.471924;,
   0.307617;0.494873;,
   0.240356;0.489502;,
   0.467041;0.266113;,
   0.425293;0.213501;,
   0.372070;0.246216;,
   0.367432;0.289307;,
   0.477539;0.311523;,
   0.362061;0.339844;,
   0.483643;0.364746;,
   0.377441;0.413818;,
   0.475586;0.436768;,
   0.392578;0.485352;,
   0.431641;0.496094;,
   0.467041;0.266113;,
   0.425293;0.213501;,
   0.372070;0.246216;,
   0.477539;0.311523;,
   0.367432;0.289307;,
   0.483643;0.364746;,
   0.362061;0.339844;,
   0.377441;0.413818;,
   0.475586;0.436768;,
   0.431641;0.496094;,
   0.392578;0.485352;,
   0.335205;0.275146;,
   0.285400;0.235962;,
   0.233643;0.253906;,
   0.216309;0.289063;,
   0.346924;0.337402;,
   0.216309;0.370361;,
   0.347168;0.405273;,
   0.216309;0.463379;,
   0.348633;0.471924;,
   0.307617;0.494873;,
   0.240356;0.489502;,
   0.467041;0.266113;,
   0.425293;0.213501;,
   0.372070;0.246216;,
   0.477539;0.311523;,
   0.367432;0.289307;,
   0.362061;0.339844;,
   0.483643;0.364746;,
   0.377441;0.413818;,
   0.475586;0.436768;,
   0.392578;0.485352;,
   0.431641;0.496094;,
   0.335205;0.275146;,
   0.285400;0.235962;,
   0.233643;0.253906;,
   0.346924;0.337402;,
   0.216309;0.289063;,
   0.216309;0.370361;,
   0.347168;0.405273;,
   0.216309;0.463379;,
   0.348633;0.471924;,
   0.307617;0.494873;,
   0.240356;0.489502;,
   0.467041;0.266113;,
   0.425293;0.213501;,
   0.372070;0.246216;,
   0.367432;0.289307;,
   0.477539;0.311523;,
   0.362061;0.339844;,
   0.483643;0.364746;,
   0.377441;0.413818;,
   0.475586;0.436768;,
   0.392578;0.485352;,
   0.431641;0.496094;,
   0.335205;0.275146;,
   0.285400;0.235962;,
   0.233643;0.253906;,
   0.216309;0.289063;,
   0.346924;0.337402;,
   0.216309;0.370361;,
   0.347168;0.405273;,
   0.216309;0.463379;,
   0.348633;0.471924;,
   0.307617;0.494873;,
   0.240356;0.489502;,
   0.467041;0.266113;,
   0.425293;0.213501;,
   0.372070;0.246216;,
   0.367432;0.289307;,
   0.477539;0.311523;,
   0.483643;0.364746;,
   0.362061;0.339844;,
   0.377441;0.413818;,
   0.475586;0.436768;,
   0.392578;0.485352;,
   0.431641;0.496094;,
   0.335205;0.275146;,
   0.285400;0.235962;,
   0.233643;0.253906;,
   0.216309;0.289063;,
   0.346924;0.337402;,
   0.216309;0.370361;,
   0.347168;0.405273;,
   0.216309;0.463379;,
   0.348633;0.471924;,
   0.307617;0.494873;,
   0.240356;0.489502;,
   0.437988;0.227905;,
   0.372070;0.214600;,
   0.255859;0.224121;,
   0.469727;0.273926;,
   0.231689;0.248413;,
   0.486572;0.368896;,
   0.219360;0.307373;,
   0.225464;0.487061;,
   0.499756;0.468506;,
   0.417969;0.497559;,
   0.280762;0.497314;,
   0.437988;0.227905;,
   0.372070;0.214600;,
   0.255859;0.224121;,
   0.231689;0.248413;,
   0.469727;0.273926;,
   0.219360;0.307373;,
   0.486572;0.368896;,
   0.225464;0.487061;,
   0.499756;0.468506;,
   0.417969;0.497559;,
   0.280762;0.497314;,
   0.437988;0.227905;,
   0.372070;0.214600;,
   0.255859;0.224121;,
   0.469727;0.273926;,
   0.231689;0.248413;,
   0.486572;0.368896;,
   0.219360;0.307373;,
   0.225464;0.487061;,
   0.499756;0.468506;,
   0.417969;0.497559;,
   0.280762;0.497314;,
   0.437988;0.227905;,
   0.372070;0.214600;,
   0.255859;0.224121;,
   0.469727;0.273926;,
   0.231689;0.248413;,
   0.486572;0.368896;,
   0.219360;0.307373;,
   0.225464;0.487061;,
   0.499756;0.468506;,
   0.418213;0.494141;,
   0.280762;0.497314;,
   0.437988;0.227905;,
   0.372070;0.214600;,
   0.255859;0.224121;,
   0.469727;0.273926;,
   0.231689;0.248413;,
   0.486572;0.368896;,
   0.219360;0.307373;,
   0.225464;0.487061;,
   0.499756;0.468506;,
   0.417969;0.497559;,
   0.279541;0.493408;,
   0.322266;0.306152;,
   0.320801;0.338379;,
   0.472168;0.299561;,
   0.458740;0.266357;,
   0.275635;0.223511;,
   0.217407;0.276855;,
   0.338135;0.256592;,
   0.418457;0.223511;,
   0.357910;0.222412;,
   0.322266;0.306152;,
   0.320801;0.338379;,
   0.472168;0.299561;,
   0.458740;0.266357;,
   0.283447;0.223022;,
   0.217407;0.276855;,
   0.337402;0.253174;,
   0.418457;0.223511;,
   0.347900;0.201904;,
   0.320801;0.338379;,
   0.322266;0.306152;,
   0.217407;0.276855;,
   0.216675;0.314941;,
   0.219849;0.353760;,
   0.323242;0.366211;,
   0.472168;0.299561;,
   0.224976;0.392334;,
   0.467041;0.353516;,
   0.333496;0.408203;,
   0.217896;0.463379;,
   0.498535;0.395508;,
   0.351074;0.495117;,
   0.230835;0.495850;,
   0.498779;0.503906;,
   0.322266;0.306152;,
   0.320801;0.338379;,
   0.472168;0.299561;,
   0.458740;0.266357;,
   0.275635;0.223511;,
   0.217407;0.276855;,
   0.342285;0.249390;,
   0.418457;0.223511;,
   0.357178;0.206665;,
   0.322266;0.306152;,
   0.320801;0.338379;,
   0.472168;0.299561;,
   0.458740;0.266357;,
   0.275635;0.223511;,
   0.217407;0.276855;,
   0.339355;0.251709;,
   0.418457;0.223511;,
   0.350342;0.206177;,
   0.320801;0.338379;,
   0.322266;0.306152;,
   0.217407;0.276855;,
   0.216675;0.314941;,
   0.467041;0.353516;,
   0.472168;0.299561;,
   0.323242;0.366211;,
   0.219849;0.353760;,
   0.224976;0.392334;,
   0.333496;0.408203;,
   0.498535;0.395508;,
   0.217896;0.463379;,
   0.351074;0.495117;,
   0.498779;0.503906;,
   0.230835;0.496094;,
   0.320801;0.338379;,
   0.322266;0.306152;,
   0.217407;0.276855;,
   0.216675;0.314941;,
   0.219849;0.353760;,
   0.323242;0.366211;,
   0.224976;0.392334;,
   0.467041;0.353516;,
   0.472168;0.299561;,
   0.333496;0.408203;,
   0.217896;0.463379;,
   0.498535;0.395508;,
   0.351074;0.495117;,
   0.230835;0.496338;,
   0.498779;0.503906;,
   0.320801;0.338379;,
   0.322266;0.306152;,
   0.217407;0.276855;,
   0.216675;0.314941;,
   0.219849;0.353760;,
   0.323242;0.366211;,
   0.224976;0.392334;,
   0.467041;0.353516;,
   0.472168;0.299561;,
   0.333496;0.408203;,
   0.217896;0.463379;,
   0.498535;0.395508;,
   0.351074;0.495117;,
   0.230835;0.496094;,
   0.498779;0.503906;,
   0.280029;0.263672;,
   0.285400;0.235962;,
   0.233643;0.253906;,
   0.216309;0.289063;,
   0.335205;0.275146;,
   0.277344;0.311768;,
   0.216309;0.370361;,
   0.346924;0.337402;,
   0.283691;0.388428;,
   0.216309;0.463379;,
   0.347168;0.405273;,
   0.278809;0.467529;,
   0.240356;0.489502;,
   0.348633;0.471924;,
   0.274658;0.492188;,
   0.307617;0.494873;,
   0.240356;0.489502;,
   0.274658;0.492188;,
   0.278809;0.467529;,
   0.307617;0.494873;,
   0.348633;0.471924;,
   0.216309;0.463379;,
   0.347168;0.405273;,
   0.283691;0.388428;,
   0.216309;0.370361;,
   0.346924;0.337402;,
   0.277344;0.311768;,
   0.216309;0.289063;,
   0.335205;0.275146;,
   0.233643;0.253906;,
   0.280029;0.263672;,
   0.285400;0.235962;,
   0.240356;0.489502;,
   0.274658;0.492188;,
   0.278809;0.467529;,
   0.307617;0.494873;,
   0.348633;0.471924;,
   0.216309;0.463379;,
   0.347168;0.405273;,
   0.283691;0.388428;,
   0.216309;0.370361;,
   0.346924;0.337402;,
   0.277344;0.311768;,
   0.216309;0.289063;,
   0.335205;0.275146;,
   0.233643;0.253906;,
   0.280029;0.263672;,
   0.285400;0.235962;;
  }

  MeshTextureCoords c2 {
   364;
   0.722168;0.756348;,
   0.756348;0.755371;,
   0.798340;0.842285;,
   0.775391;0.841797;,
   0.685059;0.741211;,
   0.756348;0.857910;,
   0.660645;0.766113;,
   0.744141;0.945313;,
   0.648438;0.849609;,
   0.741211;1.072266;,
   0.692871;1.023438;,
   0.736328;0.777832;,
   0.753906;0.753906;,
   0.819824;0.877930;,
   0.777344;0.838379;,
   0.615723;0.639160;,
   0.726563;0.858398;,
   0.573242;0.655273;,
   0.723145;1.011719;,
   0.557129;0.738770;,
   0.606445;0.864746;,
   0.690918;1.001953;,
   0.722168;0.756348;,
   0.756348;0.755371;,
   0.798340;0.842285;,
   0.775391;0.841797;,
   0.685059;0.741211;,
   0.756348;0.857910;,
   0.660645;0.766113;,
   0.744141;0.945313;,
   0.648438;0.849609;,
   0.741211;1.072266;,
   0.692871;1.023438;,
   0.736328;0.777832;,
   0.753906;0.753906;,
   0.819824;0.877930;,
   0.615723;0.639160;,
   0.777344;0.838379;,
   0.726563;0.858398;,
   0.573242;0.655273;,
   0.723145;1.011719;,
   0.557129;0.738770;,
   0.606445;0.864746;,
   0.690918;1.001953;,
   0.722168;0.756348;,
   0.756348;0.755371;,
   0.798340;0.842285;,
   0.775391;0.841797;,
   0.685059;0.741211;,
   0.756348;0.857910;,
   0.660645;0.766113;,
   0.744141;0.945313;,
   0.648438;0.849609;,
   0.741211;1.072266;,
   0.692871;1.023438;,
   0.736328;0.777832;,
   0.753906;0.753906;,
   0.819824;0.877930;,
   0.777344;0.838379;,
   0.615723;0.639160;,
   0.726563;0.858398;,
   0.573242;0.655273;,
   0.723145;1.011719;,
   0.557129;0.738770;,
   0.606445;0.864746;,
   0.690918;1.001953;,
   0.722168;0.756348;,
   0.756348;0.755371;,
   0.798340;0.842285;,
   0.775391;0.841797;,
   0.685059;0.741211;,
   0.756348;0.857910;,
   0.660645;0.766113;,
   0.744141;0.945313;,
   0.648438;0.849609;,
   0.741211;1.072266;,
   0.692871;1.023438;,
   0.722168;0.756348;,
   0.756348;0.755371;,
   0.798340;0.842285;,
   0.685059;0.741211;,
   0.775391;0.841797;,
   0.660645;0.766113;,
   0.756348;0.857910;,
   0.744141;0.945313;,
   0.648438;0.849609;,
   0.692871;1.023438;,
   0.741211;1.072266;,
   0.736328;0.777832;,
   0.753906;0.753906;,
   0.819824;0.877930;,
   0.777344;0.838379;,
   0.615723;0.639160;,
   0.726563;0.858398;,
   0.573242;0.655273;,
   0.723145;1.011719;,
   0.557129;0.738770;,
   0.606445;0.864746;,
   0.690918;1.001953;,
   0.722168;0.756348;,
   0.756348;0.755371;,
   0.798340;0.842285;,
   0.685059;0.741211;,
   0.775391;0.841797;,
   0.756348;0.857910;,
   0.660645;0.766113;,
   0.744141;0.945313;,
   0.648438;0.849609;,
   0.741211;1.072266;,
   0.692871;1.023438;,
   0.736328;0.777832;,
   0.753906;0.753906;,
   0.819824;0.877930;,
   0.615723;0.639160;,
   0.777344;0.838379;,
   0.726563;0.858398;,
   0.573242;0.655273;,
   0.723145;1.011719;,
   0.557129;0.738770;,
   0.606445;0.864746;,
   0.690918;1.001953;,
   0.722168;0.756348;,
   0.756348;0.755371;,
   0.798340;0.842285;,
   0.775391;0.841797;,
   0.685059;0.741211;,
   0.756348;0.857910;,
   0.660645;0.766113;,
   0.744141;0.945313;,
   0.648438;0.849609;,
   0.741211;1.072266;,
   0.692871;1.023438;,
   0.736328;0.777832;,
   0.753906;0.753906;,
   0.819824;0.877930;,
   0.777344;0.838379;,
   0.615723;0.639160;,
   0.726563;0.858398;,
   0.573242;0.655273;,
   0.723145;1.011719;,
   0.557129;0.738770;,
   0.606445;0.864746;,
   0.690918;1.001953;,
   0.722168;0.756348;,
   0.756348;0.755371;,
   0.798340;0.842285;,
   0.775391;0.841797;,
   0.685059;0.741211;,
   0.660645;0.766113;,
   0.756348;0.857910;,
   0.744141;0.945313;,
   0.648438;0.849609;,
   0.741211;1.072266;,
   0.692871;1.023438;,
   0.736328;0.777832;,
   0.753906;0.753906;,
   0.819824;0.877930;,
   0.777344;0.838379;,
   0.615723;0.639160;,
   0.726563;0.858398;,
   0.573242;0.655273;,
   0.723145;1.011719;,
   0.557129;0.738770;,
   0.606445;0.864746;,
   0.690918;1.001953;,
   0.701660;0.693359;,
   0.735840;0.651367;,
   0.784180;0.716797;,
   0.693848;0.735840;,
   0.784180;0.691895;,
   0.703125;0.843750;,
   0.758301;0.675781;,
   0.842285;0.954102;,
   0.680176;0.974121;,
   0.678711;0.987793;,
   0.714355;0.973145;,
   0.701660;0.693359;,
   0.735840;0.651367;,
   0.784180;0.716797;,
   0.784180;0.691895;,
   0.693848;0.735840;,
   0.758301;0.675781;,
   0.703125;0.843750;,
   0.842285;0.954102;,
   0.680176;0.974121;,
   0.678711;0.987793;,
   0.714355;0.973145;,
   0.701660;0.693359;,
   0.735840;0.651367;,
   0.784180;0.716797;,
   0.693848;0.735840;,
   0.784180;0.691895;,
   0.703125;0.843750;,
   0.758301;0.675781;,
   0.842285;0.954102;,
   0.680176;0.974121;,
   0.678711;0.987793;,
   0.714355;0.973145;,
   0.701660;0.693359;,
   0.735840;0.651367;,
   0.784180;0.716797;,
   0.693848;0.735840;,
   0.784180;0.691895;,
   0.703125;0.843750;,
   0.758301;0.675781;,
   0.842285;0.954102;,
   0.680176;0.974121;,
   0.685059;0.985840;,
   0.714355;0.973145;,
   0.701660;0.693359;,
   0.735840;0.651367;,
   0.784180;0.716797;,
   0.693848;0.735840;,
   0.784180;0.691895;,
   0.703125;0.843750;,
   0.758301;0.675781;,
   0.842285;0.954102;,
   0.680176;0.974121;,
   0.678711;0.987793;,
   0.715820;0.970215;,
   0.411621;0.764648;,
   0.396240;0.791992;,
   0.296875;0.793457;,
   0.308838;0.766113;,
   0.499756;0.714355;,
   0.523926;0.845215;,
   0.427490;0.707031;,
   0.345215;0.701660;,
   0.435303;0.618652;,
   0.411621;0.764648;,
   0.396240;0.791992;,
   0.296875;0.793457;,
   0.308838;0.766113;,
   0.496826;0.708496;,
   0.523926;0.845215;,
   0.430420;0.706055;,
   0.345215;0.701660;,
   0.467041;0.596680;,
   0.404053;0.794922;,
   0.406006;0.792480;,
   0.564453;0.756348;,
   0.571777;0.765625;,
   0.513184;0.831543;,
   0.384033;0.820313;,
   0.287598;0.803223;,
   0.456787;0.904785;,
   0.271484;0.829102;,
   0.309082;0.903320;,
   0.525391;0.951660;,
   0.238770;0.869629;,
   0.420654;0.972168;,
   0.510254;0.974121;,
   0.379639;0.939453;,
   0.411621;0.764648;,
   0.396240;0.791992;,
   0.296875;0.793457;,
   0.308838;0.766113;,
   0.499756;0.714355;,
   0.523926;0.845215;,
   0.425537;0.714355;,
   0.345215;0.701660;,
   0.434814;0.644531;,
   0.411621;0.764648;,
   0.396240;0.791992;,
   0.296875;0.793457;,
   0.308838;0.766113;,
   0.499756;0.714355;,
   0.523926;0.845215;,
   0.427734;0.712402;,
   0.345215;0.701660;,
   0.454102;0.615723;,
   0.404053;0.794922;,
   0.406006;0.792480;,
   0.564453;0.756348;,
   0.571777;0.765625;,
   0.271484;0.829102;,
   0.287598;0.803223;,
   0.384033;0.820313;,
   0.513184;0.831543;,
   0.456787;0.904785;,
   0.309082;0.903320;,
   0.238770;0.869629;,
   0.525391;0.951660;,
   0.420654;0.972168;,
   0.379639;0.939453;,
   0.510742;0.974609;,
   0.404053;0.794922;,
   0.406006;0.792480;,
   0.564453;0.756348;,
   0.571777;0.765625;,
   0.513184;0.831543;,
   0.384033;0.820313;,
   0.456787;0.904785;,
   0.271484;0.829102;,
   0.287598;0.803223;,
   0.309082;0.903320;,
   0.525391;0.951660;,
   0.238770;0.869629;,
   0.420654;0.972168;,
   0.510742;0.974609;,
   0.379639;0.939453;,
   0.404053;0.794922;,
   0.406006;0.792480;,
   0.564453;0.756348;,
   0.571777;0.765625;,
   0.513184;0.831543;,
   0.384033;0.820313;,
   0.456787;0.904785;,
   0.271484;0.829102;,
   0.287598;0.803223;,
   0.309082;0.903320;,
   0.525391;0.951660;,
   0.238770;0.869629;,
   0.420654;0.972168;,
   0.510254;0.974121;,
   0.379639;0.939453;,
   0.781738;0.832031;,
   0.753906;0.753906;,
   0.819824;0.877930;,
   0.777344;0.838379;,
   0.736328;0.777832;,
   0.702148;0.745605;,
   0.726563;0.858398;,
   0.615723;0.639160;,
   0.647461;0.753906;,
   0.723145;1.011719;,
   0.573242;0.655273;,
   0.644531;0.882324;,
   0.690918;1.001953;,
   0.557129;0.738770;,
   0.647461;0.931641;,
   0.606445;0.864746;,
   0.690918;1.001953;,
   0.647461;0.931641;,
   0.644531;0.882324;,
   0.606445;0.864746;,
   0.557129;0.738770;,
   0.723145;1.011719;,
   0.573242;0.655273;,
   0.647461;0.753906;,
   0.726563;0.858398;,
   0.615723;0.639160;,
   0.702148;0.745605;,
   0.777344;0.838379;,
   0.736328;0.777832;,
   0.819824;0.877930;,
   0.781738;0.832031;,
   0.753906;0.753906;,
   0.690918;1.001953;,
   0.647461;0.931641;,
   0.644531;0.882324;,
   0.606445;0.864746;,
   0.557129;0.738770;,
   0.723145;1.011719;,
   0.573242;0.655273;,
   0.647461;0.753906;,
   0.726563;0.858398;,
   0.615723;0.639160;,
   0.702148;0.745605;,
   0.777344;0.838379;,
   0.736328;0.777832;,
   0.819824;0.877930;,
   0.781738;0.832031;,
   0.753906;0.753906;;
  }
 }
}