xof 0303txt 0032
template ColorRGBA {
 <35ff44e0-6c7c-11cf-8f52-0040333594a3>
 FLOAT red;
 FLOAT green;
 FLOAT blue;
 FLOAT alpha;
}

template ColorRGB {
 <d3e16e81-7835-11cf-8f52-0040333594a3>
 FLOAT red;
 FLOAT green;
 FLOAT blue;
}

template Material {
 <3d82ab4d-62da-11cf-ab39-0020af71e433>
 ColorRGBA faceColor;
 FLOAT power;
 ColorRGB specularColor;
 ColorRGB emissiveColor;
 [...]
}

template TextureFilename {
 <a42790e1-7810-11cf-8f52-0040333594a3>
 STRING filename;
}

template Frame {
 <3d82ab46-62da-11cf-ab39-0020af71e433>
 [...]
}

template Matrix4x4 {
 <f6f23f45-7686-11cf-8f52-0040333594a3>
 array FLOAT matrix[16];
}

template FrameTransformMatrix {
 <f6f23f41-7686-11cf-8f52-0040333594a3>
 Matrix4x4 frameMatrix;
}

template Vector {
 <3d82ab5e-62da-11cf-ab39-0020af71e433>
 FLOAT x;
 FLOAT y;
 FLOAT z;
}

template MeshFace {
 <3d82ab5f-62da-11cf-ab39-0020af71e433>
 DWORD nFaceVertexIndices;
 array DWORD faceVertexIndices[nFaceVertexIndices];
}

template Mesh {
 <3d82ab44-62da-11cf-ab39-0020af71e433>
 DWORD nVertices;
 array Vector vertices[nVertices];
 DWORD nFaces;
 array MeshFace faces[nFaces];
 [...]
}

template MeshNormals {
 <f6f23f43-7686-11cf-8f52-0040333594a3>
 DWORD nNormals;
 array Vector normals[nNormals];
 DWORD nFaceNormals;
 array MeshFace faceNormals[nFaceNormals];
}

template MeshMaterialList {
 <f6f23f42-7686-11cf-8f52-0040333594a3>
 DWORD nMaterials;
 DWORD nFaceIndexes;
 array DWORD faceIndexes[nFaceIndexes];
 [Material <3d82ab4d-62da-11cf-ab39-0020af71e433>]
}

template Coords2d {
 <f6f23f44-7686-11cf-8f52-0040333594a3>
 FLOAT u;
 FLOAT v;
}

template MeshTextureCoords {
 <f6f23f40-7686-11cf-8f52-0040333594a3>
 DWORD nTextureCoords;
 array Coords2d textureCoords[nTextureCoords];
}


Material MI_Plants {
 1.000000;1.000000;1.000000;1.000000;;
 10.000000;
 0.000000;0.000000;0.000000;;
 0.000000;0.000000;0.000000;;

 TextureFilename {
  "T_PlantAtlasAlpha_BC.tga";
 }
}

Frame SM_LF_Grass02 {
 

 FrameTransformMatrix {
  1.000000,0.000000,0.000000,0.000000,0.000000,1.000000,0.000000,0.000000,0.000000,0.000000,1.000000,0.000000,0.000000,0.000000,0.000000,1.000000;;
 }

 Mesh SM_LF_Grass02 {
  182;
  -31.721094;28.649613;15.095992;,
  -39.473053;32.914886;7.428080;,
  -27.656518;31.156845;1.298291;,
  -30.241686;32.667750;-9.784072;,
  -20.998467;28.851654;-0.270549;,
  -23.199789;30.169069;-21.508168;,
  -27.656518;31.156845;1.298291;,
  -23.934832;25.282210;16.692370;,
  -31.721094;28.649613;15.095992;,
  -18.906902;22.269806;16.342453;,
  -16.297862;25.427861;-0.659603;,
  -12.580314;27.491530;-27.562653;,
  -6.000636;34.698534;-33.000333;,
  -1.589670;30.402768;-23.334290;,
  8.610062;32.374314;-24.846594;,
  -0.114363;27.158832;-18.101389;,
  17.648525;28.786467;-19.203952;,
  -1.589670;30.402768;-23.334290;,
  -14.044280;23.809118;-21.051333;,
  -12.580314;27.491530;-27.562653;,
  -13.723387;20.999990;-16.283619;,
  1.291603;23.942528;-13.766814;,
  24.273322;27.491530;-18.234651;,
  34.441498;30.653901;-13.731285;,
  23.425062;29.924710;-6.215438;,
  27.177786;31.973347;3.281822;,
  18.512426;27.158832;-3.541651;,
  24.157133;28.786467;13.619958;,
  23.425062;29.924710;-6.215438;,
  17.709267;23.809118;-17.987326;,
  24.273322;27.491530;-18.234651;,
  13.263436;20.999990;-16.438168;,
  14.758874;23.942528;-1.038819;,
  19.296701;27.491530;26.336421;,
  14.514294;33.139562;34.440035;,
  7.441920;30.056643;25.298314;,
  -1.862943;31.973347;29.289869;,
  4.847370;27.158832;20.478376;,
  -12.029630;28.786467;26.218274;,
  7.441920;30.056643;25.298314;,
  19.053475;23.809118;19.661672;,
  19.296701;27.491530;26.336421;,
  17.530008;20.999990;15.140870;,
  2.386046;23.942528;16.661526;,
  9.489769;48.627638;-11.728598;,
  17.213795;60.406522;-1.117208;,
  8.260542;47.030490;23.252898;,
  6.203601;40.559066;-13.764976;,
  5.880292;42.004902;27.898080;,
  3.344411;25.611896;-18.250480;,
  4.308028;37.082688;33.636397;,
  -0.761430;6.704715;24.250096;,
  0.347312;5.730846;-27.474509;,
  0.279026;-1.317899;-12.102942;,
  -1.054056;-1.640807;14.610515;,
  13.597208;48.627638;10.449901;,
  5.516500;60.406522;20.782986;,
  -19.950104;47.030490;18.296413;,
  14.681054;40.559066;6.695124;,
  -24.978650;42.004902;17.160758;,
  18.201854;25.611896;2.725850;,
  -30.836445;37.082688;17.101643;,
  -23.232403;6.704715;9.692991;,
  26.188112;5.730846;-2.605300;,
  11.568885;-1.317899;1.306084;,
  -14.151437;-1.640807;6.910662;,
  -26.478675;42.543840;-0.687460;,
  -30.209878;52.051850;-12.117264;,
  -12.147084;41.817046;-23.579869;,
  -7.836011;37.726150;-25.302330;,
  -23.548701;35.740026;2.693834;,
  -3.769624;33.597798;-28.139875;,
  -20.951613;22.534773;7.949110;,
  0.818528;6.620438;-17.619274;,
  -19.360814;4.775841;16.761382;,
  -12.583309;-1.431592;6.873412;,
  -1.446709;-1.094725;-10.481358;,
  -2.291611;43.339789;-24.419178;,
  8.817751;53.887386;-29.873366;,
  28.181786;43.613933;-14.490198;,
  -4.797501;36.145069;-21.199320;,
  31.737267;39.441450;-10.717794;,
  -9.256699;22.442834;-18.330592;,
  36.455293;35.329648;-7.414789;,
  27.341085;7.391035;-2.321905;,
  -17.850398;3.981822;-16.050963;,
  -4.255440;-1.805904;-11.522402;,
  18.904331;-0.727195;-3.667228;,
  -8.762166;53.362275;15.481856;,
  -15.435008;66.288013;5.446739;,
  -4.194064;51.609616;-15.261475;,
  -5.686272;44.508102;17.565675;,
  -1.380949;46.094710;-19.149646;,
  -3.269504;28.105600;21.772034;,
  0.732527;40.693248;-24.072661;,
  4.880510;7.357520;-15.350542;,
  -1.168543;6.288830;30.169491;,
  0.369146;-0.642919;16.618923;,
  4.250077;-1.800564;-6.823528;,
  8.913790;40.521322;-12.866411;,
  18.088989;52.702342;-7.057076;,
  12.500090;46.167421;17.420418;,
  5.084237;32.961891;-12.622690;,
  10.635548;42.683373;22.653893;,
  0.692449;18.396069;-13.162766;,
  9.630492;39.409798;28.703037;,
  1.310885;9.656588;27.286973;,
  -4.896258;-1.733139;-16.754643;,
  -3.462085;-5.275740;-2.251689;,
  -0.987645;0.688861;20.746899;,
  -14.642677;19.024706;16.819536;,
  -18.906902;22.269806;16.342453;,
  -16.297862;25.427861;-0.659603;,
  -13.317687;21.402843;-0.432044;,
  -10.015092;14.458149;0.988581;,
  -11.994341;13.963554;18.933670;,
  -13.739094;15.854917;-18.741414;,
  -16.202098;21.818304;-20.794104;,
  -16.297862;25.427861;-0.659603;,
  -11.174477;7.665525;-16.865877;,
  -10.015092;14.458149;0.988581;,
  -19.455662;27.026381;-23.759392;,
  -23.199789;30.169069;-21.508168;,
  -20.998467;28.851654;-0.270549;,
  -8.116808;2.020818;-11.171262;,
  -6.638725;-0.595946;3.736624;,
  -10.015092;14.458149;0.988581;,
  -8.950722;0.260365;19.880482;,
  1.291603;23.942528;-13.766814;,
  -14.160899;17.973867;-12.240084;,
  -13.723387;20.999990;-16.283619;,
  1.659753;20.191530;-10.983667;,
  0.356961;13.715459;-7.851995;,
  -16.099677;13.254242;-9.728811;,
  17.781834;15.017976;-11.260932;,
  18.466587;20.578602;-13.386500;,
  1.291603;23.942528;-13.766814;,
  16.730486;7.381202;-8.951377;,
  0.356961;13.715459;-7.851995;,
  20.105974;25.434557;-16.291816;,
  17.648525;28.786467;-19.203952;,
  -0.114363;27.158832;-18.101389;,
  11.508210;2.263094;-6.051953;,
  -2.163145;-0.322787;-4.650367;,
  0.356961;13.715459;-7.851995;,
  -16.967955;0.475741;-6.842709;,
  14.758874;23.942528;-1.038819;,
  9.309218;17.973867;-15.821352;,
  13.263436;20.999990;-16.438168;,
  12.210426;20.191530;0.043115;,
  8.898443;13.715459;-0.425971;,
  6.421948;13.254242;-17.075683;,
  16.646506;15.017976;15.806702;,
  18.842821;20.578602;15.929139;,
  14.758874;23.942528;-1.038819;,
  14.180533;7.381202;15.371806;,
  8.898443;13.715459;-0.425971;,
  22.026907;25.434557;16.787416;,
  24.157133;28.786467;13.619958;,
  18.512426;27.158832;-3.541651;,
  10.074727;2.201937;10.992836;,
  5.204941;-0.322787;-2.072615;,
  8.898443;13.715459;-0.425971;,
  3.455698;0.475741;-17.181544;,
  16.923426;17.973867;11.119967;,
  17.530008;20.999990;15.140870;,
  2.386046;23.942528;16.661526;,
  1.322053;20.191530;14.070102;,
  1.783361;13.715459;10.702265;,
  18.156954;13.254242;8.184010;,
  -14.180109;15.017976;18.580990;,
  -14.300517;20.578602;20.814344;,
  2.386046;23.942528;16.661526;,
  -13.752427;7.381202;16.073430;,
  1.783361;13.715459;10.702265;,
  -15.144558;25.434557;24.052125;,
  -12.029630;28.786467;26.218274;,
  4.847370;27.158832;20.478376;,
  -9.446075;2.146937;11.898385;,
  3.402696;-0.322787;6.946479;,
  1.783361;13.715459;10.702265;,
  18.261054;0.475741;5.167736;;
  146;
  3;0,1,2;,
  3;1,3,2;,
  3;4,3,5;,
  3;4,6,3;,
  3;6,7,8;,
  3;7,6,4;,
  3;9,7,4;,
  3;4,10,9;,
  3;11,12,13;,
  3;12,14,13;,
  3;15,14,16;,
  3;14,15,17;,
  3;17,18,19;,
  3;17,15,18;,
  3;20,18,15;,
  3;15,21,20;,
  3;22,23,24;,
  3;23,25,24;,
  3;26,25,27;,
  3;26,28,25;,
  3;29,30,28;,
  3;29,28,26;,
  3;31,29,26;,
  3;26,32,31;,
  3;33,34,35;,
  3;34,36,35;,
  3;37,36,38;,
  3;37,39,36;,
  3;40,41,39;,
  3;40,39,37;,
  3;42,40,37;,
  3;37,43,42;,
  3;44,45,46;,
  3;47,44,46;,
  3;47,46,48;,
  3;49,47,48;,
  3;49,48,50;,
  3;49,50,51;,
  3;51,52,49;,
  3;51,53,52;,
  3;51,54,53;,
  3;55,56,57;,
  3;58,55,57;,
  3;58,57,59;,
  3;60,58,59;,
  3;60,59,61;,
  3;60,61,62;,
  3;62,63,60;,
  3;62,64,63;,
  3;62,65,64;,
  3;66,67,68;,
  3;66,68,69;,
  3;69,70,66;,
  3;70,69,71;,
  3;71,72,70;,
  3;72,71,73;,
  3;73,74,72;,
  3;73,75,74;,
  3;73,76,75;,
  3;77,78,79;,
  3;80,77,79;,
  3;79,81,80;,
  3;82,80,81;,
  3;81,83,82;,
  3;82,83,84;,
  3;84,85,82;,
  3;84,86,85;,
  3;84,87,86;,
  3;88,89,90;,
  3;90,91,88;,
  3;91,90,92;,
  3;92,93,91;,
  3;93,92,94;,
  3;93,94,95;,
  3;95,96,93;,
  3;95,97,96;,
  3;95,98,97;,
  3;99,100,101;,
  3;102,99,101;,
  3;102,101,103;,
  3;104,102,103;,
  3;104,103,105;,
  3;104,105,106;,
  3;106,107,104;,
  3;106,108,107;,
  3;106,109,108;,
  3;110,111,112;,
  3;112,113,110;,
  3;110,113,114;,
  3;114,115,110;,
  3;113,116,114;,
  3;117,116,113;,
  3;117,113,118;,
  3;116,119,120;,
  3;118,121,117;,
  3;122,121,118;,
  3;118,123,122;,
  3;124,125,119;,
  3;119,125,126;,
  3;115,126,125;,
  3;125,127,115;,
  3;128,129,130;,
  3;128,131,129;,
  3;129,131,132;,
  3;132,133,129;,
  3;132,131,134;,
  3;135,134,131;,
  3;135,131,136;,
  3;134,137,138;,
  3;136,139,135;,
  3;140,139,136;,
  3;136,141,140;,
  3;142,143,137;,
  3;137,143,144;,
  3;133,144,143;,
  3;143,145,133;,
  3;146,147,148;,
  3;147,146,149;,
  3;147,149,150;,
  3;150,151,147;,
  3;150,149,152;,
  3;149,153,152;,
  3;153,149,154;,
  3;152,155,156;,
  3;154,157,153;,
  3;158,157,154;,
  3;154,159,158;,
  3;160,161,155;,
  3;155,161,162;,
  3;151,162,161;,
  3;161,163,151;,
  3;164,165,166;,
  3;166,167,164;,
  3;164,167,168;,
  3;168,169,164;,
  3;170,168,167;,
  3;167,171,170;,
  3;171,167,172;,
  3;170,173,174;,
  3;172,175,171;,
  3;176,175,172;,
  3;172,177,176;,
  3;178,179,173;,
  3;173,179,180;,
  3;169,180,179;,
  3;179,181,169;;

  MeshNormals {
   182;
   -0.302247;-0.918240;-0.255894;,
   -0.242984;-0.950037;-0.195932;,
   -0.285078;-0.946253;-0.152758;,
   -0.318513;-0.946987;-0.042012;,
   -0.517686;-0.851731;-0.080967;,
   -0.500384;-0.865790;0.004824;,
   -0.285078;-0.946253;-0.152758;,
   -0.429912;-0.864142;-0.261600;,
   -0.302247;-0.918240;-0.255894;,
   -0.548644;-0.799405;-0.244829;,
   -0.695845;-0.709240;-0.113042;,
   0.387715;-0.800877;-0.456370;,
   0.295586;-0.815631;-0.497368;,
   0.216762;-0.835925;-0.504226;,
   0.062940;-0.838633;-0.541049;,
   0.120484;-0.795896;-0.593324;,
   0.002963;-0.758347;-0.651844;,
   0.216762;-0.835925;-0.504226;,
   0.327644;-0.818150;-0.472525;,
   0.387715;-0.800877;-0.456370;,
   0.269750;-0.793282;-0.545837;,
   0.127898;-0.690491;-0.711944;,
   0.348872;-0.913445;0.209540;,
   0.190416;-0.964004;0.185577;,
   0.352397;-0.926308;0.133305;,
   0.446455;-0.894548;-0.021516;,
   0.591551;-0.805740;-0.029173;,
   0.621122;-0.767528;-0.158455;,
   0.352397;-0.926308;0.133305;,
   0.535515;-0.826298;0.174518;,
   0.348872;-0.913445;0.209540;,
   0.602708;-0.789682;0.114653;,
   0.726024;-0.684862;-0.062069;,
   -0.225783;-0.853123;0.470323;,
   -0.161072;-0.890746;0.425003;,
   -0.095173;-0.882299;0.460967;,
   0.054591;-0.872209;0.486078;,
   0.033648;-0.806363;0.590463;,
   0.161960;-0.772225;0.614359;,
   -0.095173;-0.882299;0.460967;,
   -0.182573;-0.826246;0.532903;,
   -0.225783;-0.853123;0.470323;,
   -0.117005;-0.794043;0.596495;,
   0.063802;-0.690598;0.720419;,
   0.896065;-0.443781;0.011225;,
   0.834506;-0.550984;0.004168;,
   0.899886;-0.435765;0.017703;,
   0.962174;-0.272025;0.014993;,
   0.954273;-0.297169;0.032464;,
   0.984313;-0.175177;0.021019;,
   0.976468;-0.213688;0.029106;,
   0.990142;-0.137637;0.025988;,
   0.994240;-0.104614;0.023282;,
   0.999423;0.024894;0.023111;,
   0.994673;-0.090941;0.048538;,
   0.223666;-0.449660;0.864742;,
   0.214200;-0.556984;0.802426;,
   0.218288;-0.441737;0.870183;,
   0.237725;-0.276032;0.931286;,
   0.218282;-0.301856;0.928028;,
   0.237713;-0.177943;0.954897;,
   0.227462;-0.217235;0.949247;,
   0.234301;-0.139423;0.962114;,
   0.238163;-0.105856;0.965439;,
   0.239677;0.025097;0.970528;,
   0.213105;-0.092389;0.972651;,
   -0.686951;-0.596207;-0.415495;,
   -0.624302;-0.688551;-0.368978;,
   -0.690749;-0.593123;-0.413607;,
   -0.753130;-0.476405;-0.453689;,
   -0.769363;-0.432122;-0.470480;,
   -0.795736;-0.370197;-0.479331;,
   -0.806740;-0.330667;-0.489723;,
   -0.816378;-0.291235;-0.498707;,
   -0.827078;-0.258162;-0.499295;,
   -0.849520;-0.136297;-0.509646;,
   -0.813034;-0.248439;-0.526549;,
   0.266435;-0.533100;-0.803005;,
   0.244266;-0.635862;-0.732130;,
   0.273751;-0.525129;-0.805792;,
   0.285147;-0.364530;-0.886459;,
   0.300764;-0.388968;-0.870773;,
   0.295176;-0.268009;-0.917084;,
   0.301950;-0.306403;-0.902742;,
   0.300864;-0.230135;-0.925483;,
   0.298555;-0.196566;-0.933931;,
   0.296792;-0.066664;-0.952612;,
   0.323424;-0.182240;-0.928540;,
   -0.902309;-0.416738;-0.110315;,
   -0.851613;-0.515084;-0.097175;,
   -0.906035;-0.406439;-0.117931;,
   -0.960046;-0.252204;-0.121263;,
   -0.951144;-0.275742;-0.138892;,
   -0.978403;-0.160810;-0.129878;,
   -0.970263;-0.198100;-0.139092;,
   -0.983206;-0.121122;-0.136515;,
   -0.986693;-0.093099;-0.133305;,
   -0.990713;0.023464;-0.133932;,
   -0.984021;-0.080251;-0.158943;,
   0.859988;-0.510271;-0.006707;,
   0.794192;-0.607364;0.019184;,
   0.864422;-0.502761;-0.002525;,
   0.933171;-0.355827;-0.050783;,
   0.925754;-0.377184;-0.026687;,
   0.960545;-0.269376;-0.069207;,
   0.951441;-0.303624;-0.050728;,
   0.968286;-0.239412;-0.071442;,
   0.975397;-0.203472;-0.084850;,
   0.989233;-0.093516;-0.112570;,
   0.975586;-0.213975;-0.049470;,
   -0.775549;-0.610490;-0.160703;,
   -0.548644;-0.799405;-0.244829;,
   -0.695845;-0.709240;-0.113042;,
   -0.860404;-0.509611;-0.001349;,
   -0.949969;-0.307671;0.053837;,
   -0.930128;-0.348332;-0.116302;,
   -0.937272;-0.318773;0.141085;,
   -0.888679;-0.447340;0.100681;,
   -0.695845;-0.709240;-0.113042;,
   -0.952055;-0.276921;0.130026;,
   -0.949969;-0.307671;0.053837;,
   -0.745981;-0.663604;0.056056;,
   -0.500384;-0.865790;0.004824;,
   -0.517686;-0.851731;-0.080967;,
   -0.881109;-0.472894;0.004353;,
   -0.970560;-0.239875;-0.021762;,
   -0.949969;-0.307671;0.053837;,
   -0.966474;-0.223408;-0.126561;,
   0.127898;-0.690491;-0.711944;,
   0.168080;-0.613416;-0.771667;,
   0.269750;-0.793282;-0.545837;,
   -0.002390;-0.510891;-0.859642;,
   -0.055280;-0.312129;-0.948430;,
   0.119894;-0.353692;-0.927646;,
   -0.145438;-0.318090;-0.936839;,
   -0.099593;-0.440246;-0.892337;,
   0.127898;-0.690491;-0.711944;,
   -0.132015;-0.283301;-0.949901;,
   -0.055280;-0.312129;-0.948430;,
   -0.061389;-0.589253;-0.805613;,
   0.002963;-0.758347;-0.651844;,
   0.120484;-0.795896;-0.593324;,
   0.004981;-0.496741;-0.867884;,
   0.023368;-0.244727;-0.969310;,
   -0.055280;-0.312129;-0.948430;,
   0.130682;-0.226858;-0.965121;,
   0.726024;-0.684862;-0.062069;,
   0.792735;-0.608309;-0.039131;,
   0.602708;-0.789682;0.114653;,
   0.833794;-0.505285;-0.222427;,
   0.904795;-0.307888;-0.294196;,
   0.928969;-0.348631;-0.124392;,
   0.871809;-0.313978;-0.375988;,
   0.840990;-0.434937;-0.321816;,
   0.726024;-0.684862;-0.062069;,
   0.887410;-0.279033;-0.366940;,
   0.904795;-0.307888;-0.294196;,
   0.768274;-0.582944;-0.264446;,
   0.621122;-0.767528;-0.158455;,
   0.591551;-0.805740;-0.029173;,
   0.846740;-0.483386;-0.222191;,
   0.943972;-0.240545;-0.225955;,
   0.904795;-0.307888;-0.294196;,
   0.966839;-0.223405;-0.123744;,
   0.041034;-0.613265;0.788811;,
   -0.117005;-0.794043;0.596495;,
   0.063802;-0.690598;0.720419;,
   0.228209;-0.510467;0.829062;,
   0.302388;-0.311738;0.900767;,
   0.128345;-0.353387;0.926631;,
   0.386187;-0.317463;0.866070;,
   0.330433;-0.439677;0.835164;,
   0.063802;-0.690598;0.720419;,
   0.377625;-0.280858;0.882337;,
   0.302388;-0.311738;0.900767;,
   0.270905;-0.588870;0.761474;,
   0.161960;-0.772225;0.614359;,
   0.033648;-0.806363;0.590463;,
   0.232836;-0.482123;0.844598;,
   0.232783;-0.243874;0.941455;,
   0.302388;-0.311738;0.900767;,
   0.127776;-0.226861;0.965509;;
   146;
   3;0,1,2;,
   3;1,3,2;,
   3;4,3,5;,
   3;4,6,3;,
   3;6,7,8;,
   3;7,6,4;,
   3;9,7,4;,
   3;4,10,9;,
   3;11,12,13;,
   3;12,14,13;,
   3;15,14,16;,
   3;14,15,17;,
   3;17,18,19;,
   3;17,15,18;,
   3;20,18,15;,
   3;15,21,20;,
   3;22,23,24;,
   3;23,25,24;,
   3;26,25,27;,
   3;26,28,25;,
   3;29,30,28;,
   3;29,28,26;,
   3;31,29,26;,
   3;26,32,31;,
   3;33,34,35;,
   3;34,36,35;,
   3;37,36,38;,
   3;37,39,36;,
   3;40,41,39;,
   3;40,39,37;,
   3;42,40,37;,
   3;37,43,42;,
   3;44,45,46;,
   3;47,44,46;,
   3;47,46,48;,
   3;49,47,48;,
   3;49,48,50;,
   3;49,50,51;,
   3;51,52,49;,
   3;51,53,52;,
   3;51,54,53;,
   3;55,56,57;,
   3;58,55,57;,
   3;58,57,59;,
   3;60,58,59;,
   3;60,59,61;,
   3;60,61,62;,
   3;62,63,60;,
   3;62,64,63;,
   3;62,65,64;,
   3;66,67,68;,
   3;66,68,69;,
   3;69,70,66;,
   3;70,69,71;,
   3;71,72,70;,
   3;72,71,73;,
   3;73,74,72;,
   3;73,75,74;,
   3;73,76,75;,
   3;77,78,79;,
   3;80,77,79;,
   3;79,81,80;,
   3;82,80,81;,
   3;81,83,82;,
   3;82,83,84;,
   3;84,85,82;,
   3;84,86,85;,
   3;84,87,86;,
   3;88,89,90;,
   3;90,91,88;,
   3;91,90,92;,
   3;92,93,91;,
   3;93,92,94;,
   3;93,94,95;,
   3;95,96,93;,
   3;95,97,96;,
   3;95,98,97;,
   3;99,100,101;,
   3;102,99,101;,
   3;102,101,103;,
   3;104,102,103;,
   3;104,103,105;,
   3;104,105,106;,
   3;106,107,104;,
   3;106,108,107;,
   3;106,109,108;,
   3;110,111,112;,
   3;112,113,110;,
   3;110,113,114;,
   3;114,115,110;,
   3;113,116,114;,
   3;117,116,113;,
   3;117,113,118;,
   3;116,119,120;,
   3;118,121,117;,
   3;122,121,118;,
   3;118,123,122;,
   3;124,125,119;,
   3;119,125,126;,
   3;115,126,125;,
   3;125,127,115;,
   3;128,129,130;,
   3;128,131,129;,
   3;129,131,132;,
   3;132,133,129;,
   3;132,131,134;,
   3;135,134,131;,
   3;135,131,136;,
   3;134,137,138;,
   3;136,139,135;,
   3;140,139,136;,
   3;136,141,140;,
   3;142,143,137;,
   3;137,143,144;,
   3;133,144,143;,
   3;143,145,133;,
   3;146,147,148;,
   3;147,146,149;,
   3;147,149,150;,
   3;150,151,147;,
   3;150,149,152;,
   3;149,153,152;,
   3;153,149,154;,
   3;152,155,156;,
   3;154,157,153;,
   3;158,157,154;,
   3;154,159,158;,
   3;160,161,155;,
   3;155,161,162;,
   3;151,162,161;,
   3;161,163,151;,
   3;164,165,166;,
   3;166,167,164;,
   3;164,167,168;,
   3;168,169,164;,
   3;170,168,167;,
   3;167,171,170;,
   3;171,167,172;,
   3;170,173,174;,
   3;172,175,171;,
   3;176,175,172;,
   3;172,177,176;,
   3;178,179,173;,
   3;173,179,180;,
   3;169,180,179;,
   3;179,181,169;;
  }

  MeshMaterialList {
   1;
   146;
   0,
   0,
   0,
   0,
   0,
   0,
   0,
   0,
   0,
   0,
   0,
   0,
   0,
   0,
   0,
   0,
   0,
   0,
   0,
   0,
   0,
   0,
   0,
   0,
   0,
   0,
   0,
   0,
   0,
   0,
   0,
   0,
   0,
   0,
   0,
   0,
   0,
   0,
   0,
   0,
   0,
   0,
   0,
   0,
   0,
   0,
   0,
   0,
   0,
   0,
   0,
   0,
   0,
   0,
   0,
   0,
   0,
   0,
   0,
   0,
   0,
   0,
   0,
   0,
   0,
   0,
   0,
   0,
   0,
   0,
   0,
   0,
   0,
   0,
   0,
   0,
   0,
   0,
   0,
   0,
   0,
   0,
   0,
   0,
   0,
   0,
   0,
   0,
   0,
   0,
   0,
   0,
   0,
   0,
   0,
   0,
   0,
   0,
   0,
   0,
   0,
   0,
   0,
   0,
   0,
   0,
   0,
   0,
   0,
   0,
   0,
   0,
   0,
   0,
   0,
   0,
   0,
   0,
   0,
   0,
   0,
   0,
   0,
   0,
   0,
   0,
   0,
   0,
   0,
   0,
   0,
   0,
   0,
   0,
   0,
   0,
   0,
   0,
   0,
   0,
   0,
   0,
   0,
   0,
   0,
   0;
   { MI_Plants }
  }

  MeshTextureCoords c1 {
   182;
   0.342773;0.863770;,
   0.310303;0.860840;,
   0.301270;0.876953;,
   0.270752;0.868652;,
   0.297852;0.896484;,
   0.235962;0.889160;,
   0.301270;0.876953;,
   0.353516;0.889160;,
   0.342773;0.863770;,
   0.355225;0.905762;,
   0.297119;0.912598;,
   0.342773;0.863770;,
   0.297852;0.859375;,
   0.300293;0.875977;,
   0.274170;0.866211;,
   0.297852;0.896484;,
   0.235962;0.889160;,
   0.300293;0.875977;,
   0.353516;0.889160;,
   0.342773;0.863770;,
   0.355225;0.905762;,
   0.297119;0.912598;,
   0.342773;0.863770;,
   0.312500;0.849609;,
   0.302246;0.874512;,
   0.270752;0.868652;,
   0.297852;0.896484;,
   0.235962;0.889160;,
   0.302246;0.874512;,
   0.353516;0.889160;,
   0.342773;0.863770;,
   0.355225;0.905762;,
   0.297119;0.912598;,
   0.342773;0.863770;,
   0.303711;0.855957;,
   0.301270;0.875488;,
   0.270752;0.868652;,
   0.297852;0.896484;,
   0.235962;0.889160;,
   0.301270;0.875488;,
   0.353516;0.889160;,
   0.342773;0.863770;,
   0.355225;0.905762;,
   0.297119;0.912598;,
   0.350342;0.874023;,
   0.322266;0.851074;,
   0.259033;0.875977;,
   0.355225;0.892578;,
   0.245972;0.886719;,
   0.365723;0.929688;,
   0.230591;0.899414;,
   0.251709;0.973145;,
   0.388672;0.979004;,
   0.346924;0.996582;,
   0.276367;0.995606;,
   0.350342;0.874023;,
   0.322266;0.851074;,
   0.259033;0.875977;,
   0.355225;0.892578;,
   0.245972;0.886719;,
   0.365723;0.929688;,
   0.230591;0.899414;,
   0.251709;0.973145;,
   0.388672;0.979004;,
   0.346924;0.996582;,
   0.276367;0.995606;,
   0.350342;0.874023;,
   0.322266;0.851074;,
   0.259033;0.875977;,
   0.245972;0.886719;,
   0.355225;0.892578;,
   0.230591;0.899414;,
   0.365723;0.929688;,
   0.251709;0.973145;,
   0.388672;0.979004;,
   0.346924;0.996582;,
   0.276367;0.995606;,
   0.350342;0.874023;,
   0.322266;0.851074;,
   0.259033;0.875977;,
   0.355225;0.892578;,
   0.245972;0.886719;,
   0.365723;0.929688;,
   0.230591;0.899414;,
   0.251709;0.973145;,
   0.388672;0.979004;,
   0.346924;0.996582;,
   0.276367;0.995606;,
   0.350342;0.874023;,
   0.322266;0.851074;,
   0.259033;0.875977;,
   0.355225;0.892578;,
   0.245972;0.886719;,
   0.365723;0.929688;,
   0.230591;0.899414;,
   0.251709;0.973145;,
   0.388672;0.979004;,
   0.347168;0.994629;,
   0.276367;0.995606;,
   0.350342;0.874023;,
   0.322266;0.851074;,
   0.259033;0.875977;,
   0.355225;0.892578;,
   0.245972;0.886719;,
   0.365723;0.929688;,
   0.230591;0.899414;,
   0.251709;0.973145;,
   0.388672;0.979004;,
   0.346924;0.996582;,
   0.276123;0.993652;,
   0.360352;0.922852;,
   0.355225;0.905762;,
   0.297119;0.912598;,
   0.298584;0.926758;,
   0.303711;0.948242;,
   0.373779;0.942871;,
   0.238281;0.936035;,
   0.235352;0.918457;,
   0.297119;0.912598;,
   0.237549;0.961426;,
   0.303711;0.948242;,
   0.228638;0.901856;,
   0.235962;0.889160;,
   0.297852;0.896484;,
   0.254150;0.983887;,
   0.312500;0.997070;,
   0.303711;0.948242;,
   0.388184;0.997559;,
   0.297119;0.912598;,
   0.360352;0.922852;,
   0.355225;0.905762;,
   0.298584;0.926758;,
   0.303711;0.948242;,
   0.373779;0.942871;,
   0.238281;0.936035;,
   0.235352;0.918457;,
   0.297119;0.912598;,
   0.237549;0.961426;,
   0.303711;0.948242;,
   0.228638;0.901856;,
   0.235962;0.889160;,
   0.297852;0.896484;,
   0.254150;0.983398;,
   0.312500;0.997070;,
   0.303711;0.948242;,
   0.388184;0.997559;,
   0.297119;0.912598;,
   0.360352;0.922852;,
   0.355225;0.905762;,
   0.298584;0.926758;,
   0.303711;0.948242;,
   0.373779;0.942871;,
   0.238281;0.936035;,
   0.235352;0.918457;,
   0.297119;0.912598;,
   0.237549;0.961426;,
   0.303711;0.948242;,
   0.228638;0.901856;,
   0.235962;0.889160;,
   0.297852;0.896484;,
   0.254150;0.983887;,
   0.312500;0.997070;,
   0.303711;0.948242;,
   0.388184;0.997559;,
   0.360352;0.922852;,
   0.355225;0.905762;,
   0.297119;0.912598;,
   0.298584;0.926758;,
   0.303711;0.948242;,
   0.373779;0.942871;,
   0.238281;0.936035;,
   0.235352;0.918457;,
   0.297119;0.912598;,
   0.237549;0.961426;,
   0.303711;0.948242;,
   0.228638;0.901856;,
   0.235962;0.889160;,
   0.297852;0.896484;,
   0.254150;0.983887;,
   0.312500;0.997070;,
   0.303711;0.948242;,
   0.388184;0.997559;;
  }

  MeshTextureCoords c2 {
   182;
   0.345215;0.701660;,
   0.435303;0.618652;,
   0.427490;0.707031;,
   0.499756;0.714355;,
   0.411621;0.764648;,
   0.523926;0.845215;,
   0.427490;0.707031;,
   0.308838;0.766113;,
   0.345215;0.701660;,
   0.296875;0.793457;,
   0.396240;0.791992;,
   0.345215;0.701660;,
   0.467041;0.596680;,
   0.430420;0.706055;,
   0.496826;0.708496;,
   0.411621;0.764648;,
   0.523926;0.845215;,
   0.430420;0.706055;,
   0.308838;0.766113;,
   0.345215;0.701660;,
   0.296875;0.793457;,
   0.396240;0.791992;,
   0.345215;0.701660;,
   0.434814;0.644531;,
   0.425537;0.714355;,
   0.499756;0.714355;,
   0.411621;0.764648;,
   0.523926;0.845215;,
   0.425537;0.714355;,
   0.308838;0.766113;,
   0.345215;0.701660;,
   0.296875;0.793457;,
   0.396240;0.791992;,
   0.345215;0.701660;,
   0.454102;0.615723;,
   0.427734;0.712402;,
   0.499756;0.714355;,
   0.411621;0.764648;,
   0.523926;0.845215;,
   0.427734;0.712402;,
   0.308838;0.766113;,
   0.345215;0.701660;,
   0.296875;0.793457;,
   0.396240;0.791992;,
   0.701660;0.693359;,
   0.735840;0.651367;,
   0.784180;0.716797;,
   0.693848;0.735840;,
   0.784180;0.691895;,
   0.703125;0.843750;,
   0.758301;0.675781;,
   0.842285;0.954102;,
   0.680176;0.974121;,
   0.678711;0.987793;,
   0.714355;0.973145;,
   0.701660;0.693359;,
   0.735840;0.651367;,
   0.784180;0.716797;,
   0.693848;0.735840;,
   0.784180;0.691895;,
   0.703125;0.843750;,
   0.758301;0.675781;,
   0.842285;0.954102;,
   0.680176;0.974121;,
   0.678711;0.987793;,
   0.714355;0.973145;,
   0.701660;0.693359;,
   0.735840;0.651367;,
   0.784180;0.716797;,
   0.784180;0.691895;,
   0.693848;0.735840;,
   0.758301;0.675781;,
   0.703125;0.843750;,
   0.842285;0.954102;,
   0.680176;0.974121;,
   0.678711;0.987793;,
   0.714355;0.973145;,
   0.701660;0.693359;,
   0.735840;0.651367;,
   0.784180;0.716797;,
   0.693848;0.735840;,
   0.784180;0.691895;,
   0.703125;0.843750;,
   0.758301;0.675781;,
   0.842285;0.954102;,
   0.680176;0.974121;,
   0.678711;0.987793;,
   0.714355;0.973145;,
   0.701660;0.693359;,
   0.735840;0.651367;,
   0.784180;0.716797;,
   0.693848;0.735840;,
   0.784180;0.691895;,
   0.703125;0.843750;,
   0.758301;0.675781;,
   0.842285;0.954102;,
   0.680176;0.974121;,
   0.685059;0.985840;,
   0.714355;0.973145;,
   0.701660;0.693359;,
   0.735840;0.651367;,
   0.784180;0.716797;,
   0.693848;0.735840;,
   0.784180;0.691895;,
   0.703125;0.843750;,
   0.758301;0.675781;,
   0.842285;0.954102;,
   0.680176;0.974121;,
   0.678711;0.987793;,
   0.715820;0.970215;,
   0.271484;0.829102;,
   0.287598;0.803223;,
   0.404053;0.794922;,
   0.384033;0.820313;,
   0.309082;0.903320;,
   0.238770;0.869629;,
   0.456787;0.904785;,
   0.513184;0.831543;,
   0.404053;0.794922;,
   0.525391;0.951660;,
   0.309082;0.903320;,
   0.571777;0.765625;,
   0.564453;0.756348;,
   0.406006;0.792480;,
   0.510742;0.974609;,
   0.420654;0.972168;,
   0.309082;0.903320;,
   0.379639;0.939453;,
   0.404053;0.794922;,
   0.271484;0.829102;,
   0.287598;0.803223;,
   0.384033;0.820313;,
   0.309082;0.903320;,
   0.238770;0.869629;,
   0.456787;0.904785;,
   0.513184;0.831543;,
   0.404053;0.794922;,
   0.525391;0.951660;,
   0.309082;0.903320;,
   0.571777;0.765625;,
   0.564453;0.756348;,
   0.406006;0.792480;,
   0.510254;0.974121;,
   0.420654;0.972168;,
   0.309082;0.903320;,
   0.379639;0.939453;,
   0.404053;0.794922;,
   0.271484;0.829102;,
   0.287598;0.803223;,
   0.384033;0.820313;,
   0.309082;0.903320;,
   0.238770;0.869629;,
   0.456787;0.904785;,
   0.513184;0.831543;,
   0.404053;0.794922;,
   0.525391;0.951660;,
   0.309082;0.903320;,
   0.571777;0.765625;,
   0.564453;0.756348;,
   0.406006;0.792480;,
   0.510254;0.974121;,
   0.420654;0.972168;,
   0.309082;0.903320;,
   0.379639;0.939453;,
   0.271484;0.829102;,
   0.287598;0.803223;,
   0.404053;0.794922;,
   0.384033;0.820313;,
   0.309082;0.903320;,
   0.238770;0.869629;,
   0.456787;0.904785;,
   0.513184;0.831543;,
   0.404053;0.794922;,
   0.525391;0.951660;,
   0.309082;0.903320;,
   0.571777;0.765625;,
   0.564453;0.756348;,
   0.406006;0.792480;,
   0.510742;0.974609;,
   0.420654;0.972168;,
   0.309082;0.903320;,
   0.379639;0.939453;;
  }
 }
}