xof 0303txt 0032
template ColorRGBA {
 <35ff44e0-6c7c-11cf-8f52-0040333594a3>
 FLOAT red;
 FLOAT green;
 FLOAT blue;
 FLOAT alpha;
}

template ColorRGB {
 <d3e16e81-7835-11cf-8f52-0040333594a3>
 FLOAT red;
 FLOAT green;
 FLOAT blue;
}

template Material {
 <3d82ab4d-62da-11cf-ab39-0020af71e433>
 ColorRGBA faceColor;
 FLOAT power;
 ColorRGB specularColor;
 ColorRGB emissiveColor;
 [...]
}

template TextureFilename {
 <a42790e1-7810-11cf-8f52-0040333594a3>
 STRING filename;
}

template Frame {
 <3d82ab46-62da-11cf-ab39-0020af71e433>
 [...]
}

template Matrix4x4 {
 <f6f23f45-7686-11cf-8f52-0040333594a3>
 array FLOAT matrix[16];
}

template FrameTransformMatrix {
 <f6f23f41-7686-11cf-8f52-0040333594a3>
 Matrix4x4 frameMatrix;
}

template Vector {
 <3d82ab5e-62da-11cf-ab39-0020af71e433>
 FLOAT x;
 FLOAT y;
 FLOAT z;
}

template MeshFace {
 <3d82ab5f-62da-11cf-ab39-0020af71e433>
 DWORD nFaceVertexIndices;
 array DWORD faceVertexIndices[nFaceVertexIndices];
}

template Mesh {
 <3d82ab44-62da-11cf-ab39-0020af71e433>
 DWORD nVertices;
 array Vector vertices[nVertices];
 DWORD nFaces;
 array MeshFace faces[nFaces];
 [...]
}

template MeshNormals {
 <f6f23f43-7686-11cf-8f52-0040333594a3>
 DWORD nNormals;
 array Vector normals[nNormals];
 DWORD nFaceNormals;
 array MeshFace faceNormals[nFaceNormals];
}

template MeshMaterialList {
 <f6f23f42-7686-11cf-8f52-0040333594a3>
 DWORD nMaterials;
 DWORD nFaceIndexes;
 array DWORD faceIndexes[nFaceIndexes];
 [Material <3d82ab4d-62da-11cf-ab39-0020af71e433>]
}

template Coords2d {
 <f6f23f44-7686-11cf-8f52-0040333594a3>
 FLOAT u;
 FLOAT v;
}

template MeshTextureCoords {
 <f6f23f40-7686-11cf-8f52-0040333594a3>
 DWORD nTextureCoords;
 array Coords2d textureCoords[nTextureCoords];
}


Material M_PlantAtlasAlpha01 {
 1.000000;1.000000;1.000000;1.000000;;
 10.000000;
 0.000000;0.000000;0.000000;;
 0.000000;0.000000;0.000000;;

 TextureFilename {
  "T_PlantAtlasAlpha01_D.tga";
 }
}

Frame SM_LF_Cattail01 {
 

 FrameTransformMatrix {
  1.000000,0.000000,0.000000,0.000000,0.000000,1.000000,0.000000,0.000000,0.000000,0.000000,1.000000,0.000000,0.000000,0.000000,0.000000,1.000000;;
 }

 Mesh SM_LF_Cattail01 {
  72;
  32.428426;59.876435;6.939972;,
  42.575763;25.739046;15.374328;,
  31.806691;-4.456192;2.741608;,
  42.729174;41.613549;16.410309;,
  -0.952526;61.079872;-10.372406;,
  -1.456340;8.960169;-13.773712;,
  -26.423595;36.918349;-15.245880;,
  -26.542554;57.706816;-13.663238;,
  7.640370;39.955926;-0.264435;,
  16.415333;26.748984;4.774536;,
  16.142018;15.269221;4.068207;,
  6.532856;-6.566691;-3.126862;,
  -18.664501;40.826202;-7.157684;,
  -19.561840;3.135450;-9.476654;,
  -37.407971;23.353614;-6.536987;,
  -37.239696;38.386957;-5.401672;,
  15.417989;39.922438;2.631592;,
  20.994984;-3.429777;-1.302734;,
  8.753987;16.526027;-2.738495;,
  7.377827;27.223478;-1.767670;,
  35.846333;40.980864;18.039734;,
  45.596362;38.278822;32.577546;,
  47.441638;24.291296;31.044067;,
  40.364550;5.858642;14.852387;,
  -4.921062;69.144448;5.466675;,
  -18.870434;58.472589;-1.680054;,
  -11.673473;69.367846;3.697235;,
  7.640370;39.955926;-0.264435;,
  -18.664501;40.826202;-7.157684;,
  30.874806;57.025958;22.552155;,
  45.596362;38.278822;32.577546;,
  35.846333;40.980864;18.039734;,
  41.765613;54.174042;37.062774;,
  53.946061;41.232378;45.925507;,
  50.657613;51.845552;48.910186;,
  -1.456340;8.960169;-13.773712;,
  -0.952526;61.079872;-10.372406;,
  32.428426;59.876435;6.939972;,
  31.806691;-4.456192;2.741608;,
  9.316152;-3.645370;-8.922577;,
  5.170094;100.547955;6.399200;,
  13.738882;100.239046;10.843170;,
  -2.899181;85.481734;-3.046661;,
  32.428426;59.876435;6.939972;,
  -0.952526;61.079872;-10.372406;,
  -19.561840;3.135450;-9.476654;,
  -18.664501;40.826202;-7.157684;,
  7.640370;39.955926;-0.264435;,
  6.532856;-6.566691;-3.126862;,
  -11.190135;-5.980340;-7.771149;,
  40.364550;5.858642;14.852387;,
  34.758563;-2.716662;9.078614;,
  20.994984;-3.429777;-1.302734;,
  15.417989;39.922438;2.631592;,
  35.846333;40.980864;18.039734;,
  30.874806;57.025958;22.552155;,
  35.846333;40.980864;18.039734;,
  15.417989;39.922438;2.631592;,
  16.803090;66.586438;17.153168;,
  22.046925;66.858131;21.108429;,
  -29.191357;81.778522;-7.839752;,
  -2.899181;85.481734;-3.046661;,
  -0.952526;61.079872;-10.372406;,
  -26.542554;57.706816;-13.663238;,
  -49.370496;62.614138;-16.598846;,
  -50.658032;78.754976;-11.753174;,
  -38.180250;55.794579;-0.871857;,
  -18.870434;58.472589;-1.680054;,
  -18.664501;40.826202;-7.157684;,
  -37.239696;38.386957;-5.401672;,
  -53.809946;41.935715;-3.835174;,
  -53.946118;53.608086;-0.211975;;
  42;
  3;0,1,2;,
  3;0,3,1;,
  3;4,5,6;,
  3;6,7,4;,
  3;8,9,10;,
  3;10,11,8;,
  3;12,13,14;,
  3;14,15,12;,
  3;16,17,18;,
  3;18,19,16;,
  3;20,21,22;,
  3;22,23,20;,
  3;24,25,26;,
  3;25,24,27;,
  3;27,28,25;,
  3;29,30,31;,
  3;29,32,30;,
  3;33,30,32;,
  3;32,34,33;,
  3;35,36,37;,
  3;35,37,38;,
  3;38,39,35;,
  3;40,41,42;,
  3;42,41,43;,
  3;43,44,42;,
  3;45,46,47;,
  3;45,47,48;,
  3;48,49,45;,
  3;50,51,52;,
  3;52,53,50;,
  3;53,54,50;,
  3;55,56,57;,
  3;57,58,55;,
  3;58,59,55;,
  3;60,61,62;,
  3;62,63,60;,
  3;60,63,64;,
  3;64,65,60;,
  3;66,67,68;,
  3;68,69,66;,
  3;66,69,70;,
  3;70,71,66;;

  MeshNormals {
   72;
   0.712728;0.038818;-0.700366;,
   0.712727;0.038818;-0.700366;,
   0.712727;0.038818;-0.700366;,
   0.712728;0.038818;-0.700365;,
   0.124043;0.068897;-0.989882;,
   0.129267;0.063330;-0.989586;,
   0.125229;0.067634;-0.989820;,
   0.117310;0.076054;-0.990179;,
   0.540899;0.038818;-0.840191;,
   0.540898;0.038818;-0.840192;,
   0.540900;0.038818;-0.840191;,
   0.540900;0.038818;-0.840191;,
   -0.097105;0.068897;-0.992887;,
   -0.091945;0.063331;-0.993748;,
   -0.095935;0.067634;-0.993087;,
   -0.103737;0.076054;-0.991693;,
   0.315651;0.125957;-0.940478;,
   0.315651;0.125957;-0.940478;,
   0.315651;0.125957;-0.940478;,
   0.315650;0.125958;-0.940478;,
   0.830152;0.160790;-0.533849;,
   0.832889;0.167699;-0.527422;,
   0.829661;0.159570;-0.534977;,
   0.827969;0.155409;-0.538809;,
   0.251582;0.289598;-0.923493;,
   0.251583;0.289598;-0.923493;,
   0.251578;0.289602;-0.923493;,
   0.251584;0.289597;-0.923493;,
   0.251584;0.289598;-0.923492;,
   0.792437;0.358304;-0.493620;,
   0.778584;0.349063;-0.521500;,
   0.799657;0.378798;-0.465899;,
   0.775883;0.346132;-0.527445;,
   0.767804;0.359444;-0.530356;,
   0.773645;0.381897;-0.505596;,
   0.461253;0.053340;-0.885664;,
   0.461255;0.053339;-0.885663;,
   0.461254;0.053340;-0.885663;,
   0.461253;0.053340;-0.885664;,
   0.461252;0.053338;-0.885665;,
   0.448868;0.289601;-0.845369;,
   0.448871;0.289598;-0.845369;,
   0.448872;0.289598;-0.845368;,
   0.448873;0.289597;-0.845368;,
   0.448874;0.289599;-0.845367;,
   0.254781;0.053340;-0.965527;,
   0.254783;0.053339;-0.965526;,
   0.254782;0.053340;-0.965526;,
   0.254780;0.053341;-0.965527;,
   0.254780;0.053339;-0.965527;,
   0.590647;0.147970;-0.793247;,
   0.590649;0.147966;-0.793246;,
   0.590647;0.147971;-0.793247;,
   0.590645;0.147971;-0.793248;,
   0.590644;0.147970;-0.793249;,
   0.544615;0.379136;-0.748098;,
   0.544612;0.379137;-0.748099;,
   0.544614;0.379136;-0.748099;,
   0.544617;0.379137;-0.748096;,
   0.544619;0.379142;-0.748092;,
   0.133544;0.268668;-0.953931;,
   0.131064;0.294631;-0.946581;,
   0.112580;0.270577;-0.956093;,
   0.130780;0.246692;-0.960229;,
   0.155088;0.270911;-0.950029;,
   0.131066;0.294630;-0.946581;,
   -0.079916;0.268667;-0.959912;,
   -0.080715;0.294630;-0.952197;,
   -0.100841;0.270576;-0.957403;,
   -0.084000;0.246690;-0.965447;,
   -0.058042;0.270909;-0.960853;,
   -0.080715;0.294628;-0.952197;;
   42;
   3;0,1,2;,
   3;0,3,1;,
   3;4,5,6;,
   3;6,7,4;,
   3;8,9,10;,
   3;10,11,8;,
   3;12,13,14;,
   3;14,15,12;,
   3;16,17,18;,
   3;18,19,16;,
   3;20,21,22;,
   3;22,23,20;,
   3;24,25,26;,
   3;25,24,27;,
   3;27,28,25;,
   3;29,30,31;,
   3;29,32,30;,
   3;33,30,32;,
   3;32,34,33;,
   3;35,36,37;,
   3;35,37,38;,
   3;38,39,35;,
   3;40,41,42;,
   3;42,41,43;,
   3;43,44,42;,
   3;45,46,47;,
   3;45,47,48;,
   3;48,49,45;,
   3;50,51,52;,
   3;52,53,50;,
   3;53,54,50;,
   3;55,56,57;,
   3;57,58,55;,
   3;58,59,55;,
   3;60,61,62;,
   3;62,63,60;,
   3;60,63,64;,
   3;64,65,60;,
   3;66,67,68;,
   3;68,69,66;,
   3;66,69,70;,
   3;70,71,66;;
  }

  MeshMaterialList {
   1;
   42;
   0,
   0,
   0,
   0,
   0,
   0,
   0,
   0,
   0,
   0,
   0,
   0,
   0,
   0,
   0,
   0,
   0,
   0,
   0,
   0,
   0,
   0,
   0,
   0,
   0,
   0,
   0,
   0,
   0,
   0,
   0,
   0,
   0,
   0,
   0,
   0,
   0,
   0,
   0,
   0,
   0,
   0;
   { M_PlantAtlasAlpha01 }
  }

  MeshTextureCoords c1 {
   72;
   0.286133;0.588379;,
   0.253418;0.664063;,
   0.286133;0.733398;,
   0.253418;0.628418;,
   0.376221;0.588379;,
   0.376221;0.706055;,
   0.436035;0.644531;,
   0.436523;0.597656;,
   0.286133;0.588379;,
   0.253418;0.628418;,
   0.253418;0.664063;,
   0.286133;0.733398;,
   0.376221;0.588379;,
   0.376221;0.706055;,
   0.436035;0.644531;,
   0.436523;0.597656;,
   0.286133;0.588379;,
   0.286133;0.733398;,
   0.253418;0.664063;,
   0.253418;0.628418;,
   0.376221;0.588379;,
   0.436523;0.597656;,
   0.436035;0.644531;,
   0.376221;0.706055;,
   0.328125;0.498535;,
   0.376221;0.533203;,
   0.351074;0.498535;,
   0.286133;0.588379;,
   0.376221;0.588379;,
   0.376221;0.533203;,
   0.436523;0.597656;,
   0.376221;0.588379;,
   0.439453;0.543457;,
   0.490967;0.588379;,
   0.490967;0.551758;,
   0.376221;0.706055;,
   0.376221;0.588379;,
   0.286133;0.588379;,
   0.286133;0.733398;,
   0.346924;0.733398;,
   0.351074;0.498535;,
   0.328125;0.498535;,
   0.376221;0.533203;,
   0.286133;0.588379;,
   0.376221;0.588379;,
   0.376221;0.706055;,
   0.376221;0.588379;,
   0.286133;0.588379;,
   0.286133;0.733398;,
   0.346924;0.733398;,
   0.376221;0.706055;,
   0.346924;0.733398;,
   0.286133;0.733398;,
   0.286133;0.588379;,
   0.376221;0.588379;,
   0.376221;0.533203;,
   0.376221;0.588379;,
   0.286133;0.588379;,
   0.328125;0.498535;,
   0.351074;0.498535;,
   0.439453;0.543457;,
   0.376221;0.533203;,
   0.376221;0.588379;,
   0.436523;0.597656;,
   0.490967;0.588379;,
   0.490967;0.551758;,
   0.439453;0.543457;,
   0.376221;0.533203;,
   0.376221;0.588379;,
   0.436523;0.597656;,
   0.490967;0.588379;,
   0.490967;0.551758;;
  }

  MeshTextureCoords c2 {
   72;
   0.864258;0.382568;,
   1.002930;0.704590;,
   0.864258;0.997559;,
   1.002930;0.552734;,
   0.482178;0.382568;,
   0.482178;0.880859;,
   0.229370;0.621094;,
   0.227173;0.422607;,
   0.864258;0.382568;,
   1.002930;0.552734;,
   1.002930;0.704590;,
   0.864258;0.997559;,
   0.482178;0.382568;,
   0.482178;0.880859;,
   0.229370;0.621094;,
   0.227173;0.422607;,
   0.864258;0.382568;,
   0.864258;0.997559;,
   1.002930;0.704590;,
   1.002930;0.552734;,
   0.482178;0.382568;,
   0.227173;0.422607;,
   0.229370;0.621094;,
   0.482178;0.880859;,
   0.686523;0.001991;,
   0.482178;0.149292;,
   0.588379;0.001991;,
   0.864258;0.382568;,
   0.482178;0.382568;,
   0.482178;0.149292;,
   0.227173;0.422607;,
   0.482178;0.382568;,
   0.215088;0.192749;,
   -0.003105;0.382568;,
   -0.003105;0.228271;,
   0.482178;0.880859;,
   0.482178;0.382568;,
   0.864258;0.382568;,
   0.864258;0.997559;,
   0.606934;0.997559;,
   0.588379;0.001991;,
   0.686523;0.001991;,
   0.482178;0.149292;,
   0.864258;0.382568;,
   0.482178;0.382568;,
   0.482178;0.880859;,
   0.482178;0.382568;,
   0.864258;0.382568;,
   0.864258;0.997559;,
   0.606934;0.997559;,
   0.482178;0.880859;,
   0.606934;0.997559;,
   0.864258;0.997559;,
   0.864258;0.382568;,
   0.482178;0.382568;,
   0.482178;0.149292;,
   0.482178;0.382568;,
   0.864258;0.382568;,
   0.686523;0.001991;,
   0.588379;0.001991;,
   0.215088;0.192749;,
   0.482178;0.149292;,
   0.482178;0.382568;,
   0.227173;0.422607;,
   -0.003105;0.382568;,
   -0.003105;0.228271;,
   0.215088;0.192749;,
   0.482178;0.149292;,
   0.482178;0.382568;,
   0.227173;0.422607;,
   -0.003105;0.382568;,
   -0.003105;0.228271;;
  }
 }
}